19	7	20
620.68	10	100000	.	1	1	1	1	1	1	1	1	1	1	1	1	1	1	1	1	1	1	1	1
127.343	10	100000	.	1	1	1	1	1	1	1	1	1	1	1	1	1	1	1	1	1	1	1	1
135.433	1	50000	.	1	1	1	1	1	1	1	1	1	1	1	1	1	1	1	1	1	1	1	1
0.0036	1e-09	1e-02	.	1	1	1	1	1	1	1	1	1	1	1	1	1	1	1	1	1	1	1	1
1.2	1e-03	100000	.	1	1	1	1	1	1	1	1	1	1	1	1	1	1	1	1	1	1	1	1
0.9	1e-04	100000	.	1	1	1	1	1	1	1	1	1	1	1	1	1	1	1	1	1	1	1	1
0.0009	1e-10	1e-2	.	1	1	1	1	1	1	1	1	1	1	1	1	1	1	1	1	1	1	1	1
0.0004	1e-07	1e-1	.	0	0	0	0	0	0	0	0	0	0	0	0	0	0	0	0	0	0	0	0
0.001	1e-08	1e-1	.	0	0	0	0	0	0	0	0	0	0	0	0	0	0	0	0	0	0	0	0
0.1081	1e-08	1e-2	.	1	1	1	1	1	1	1	1	1	1	1	1	1	1	1	1	1	1	1	1
0.062	1e-10	100	.	1	1	1	1	1	1	1	1	1	1	1	1	1	1	1	1	1	1	1	1
0.001	1e-06	1000	.	1	1	1	1	1	1	1	1	1	1	1	1	1	1	1	1	1	1	1	1
0.002	1e-08	10000	.	1	1	1	1	1	1	1	1	1	1	1	1	1	1	1	1	1	1	1	1
0.003	1e-06	10000	.	1	1	1	1	1	1	1	1	1	1	1	1	1	1	1	1	1	1	1	1
0.005	1e-07	1000	.	0	0	0	0	0	0	0	0	0	0	0	0	0	0	0	0	0	0	0	0
213000	1e+03	1e+07	.	0	0	0	0	0	0	0	0	0	0	0	0	0	0	0	0	0	0	0	0
716.313	1e-07	20000	.	1	1	1	1	1	1	1	1	1	1	1	1	1	1	1	1	1	1	1	1
0.1	1e-09	1	.	0	0	0	0	0	0	0	0	0	0	0	0	0	0	0	0	0	0	0	0
30000	1000	1e+07	.	0	0	0	0	0	0	0	0	0	0	0	0	0	0	0	0	0	0	0	0
.	.	.	.	0	0	0	0	0	0	0	0	0	0	0	0	0	0	0	0	0	0	0	0
.	.	.	.	0	0	0	0	0	0	0	0	0	0	0	0	0	0	0	0	0	0	0	0
.	.	.	.	0	0	0	0	0	0	0	0	0	0	0	0	0	0	0	0	0	0	0	0
.	.	.	.	0	0	0	0	0	0	0	0	0	0	0	0	0	0	0	0	0	0	0	0
.	.	.	.	0	0	0	0	0	0	0	0	0	0	0	0	0	0	0	0	0	0	0	0
.	.	.	.	1	1	1	1	1	1	1	1	1	1	1	1	1	1	1	1	1	1	1	1
.	.	.	.	0	0	0	0	0	0	0	0	0	0	0	0	0	0	0	0	0	0	0	0
 
