25	8	20
541.7340	270	8200	.	1	1	1	1	1	1	1	1	1	1	1	1	1	1	1	1	1	1	1	1
2229.330	1100	3500	.	1	1	1	1	1	1	1	1	1	1	1	1	1	1	1	1	1	1	1	1
11.45980	5	20	.	1	1	1	1	1	1	1	1	1	1	1	1	1	1	1	1	1	1	1	1
1.09353e-07	5e-08	2e-07	.	1	1	1	1	1	1	1	1	1	1	1	1	1	1	1	1	1	1	1	1
550.1020	270	830	.	1	1	1	1	1	1	1	1	1	1	1	1	1	1	1	1	1	1	1	1
4583.530	2200	6900	.	1	1	1	1	1	1	1	1	1	1	1	1	1	1	1	1	1	1	1	1
3.74718e-09	1e-09	5e-09	.	1	1	1	1	1	1	1	1	1	1	1	1	1	1	1	1	1	1	1	1
0.000258514	1e-07	1e-1	.	1	1	1	1	1	1	1	1	1	1	1	1	1	1	1	1	1	1	1	1
0.000548105	1e-08	1e-1	.	0	0	0	0	0	0	0	0	0	0	0	0	0	0	0	0	0	0	0	0
1.39453e-06	5e-07	1e-05	.	1	1	1	1	1	1	1	1	1	1	1	1	1	1	1	1	1	1	1	1
5.68962e-08	2e-08	8e-08	.	1	1	1	1	1	1	1	1	1	1	1	1	1	1	1	1	1	1	1	1
2.51209e-06	1e-06	3e-06	.	1	1	1	1	1	1	1	1	1	1	1	1	1	1	1	1	1	1	1	1
1.596420	0.7	2.5	.	1	1	1	1	1	1	1	1	1	1	1	1	1	1	1	1	1	1	1	1
1.460090	0.7	2.5	.	1	1	1	1	1	1	1	1	1	1	1	1	1	1	1	1	1	1	1	1
0.000417807	1e-07	1000	.	1	1	1	1	1	1	1	1	1	1	1	1	1	1	1	1	1	1	1	1
154978.0	1.5e+05	1e+07	.	1	1	1	1	1	1	1	1	1	1	1	1	1	1	1	1	1	1	1	1
0.142730	0.05	0.3	.	1	1	1	1	1	1	1	1	1	1	1	1	1	1	1	1	1	1	1	1
1.000000	1e-09	1	.	0	0	0	0	0	0	0	0	0	0	0	0	0	0	0	0	0	0	0	0
30000.00	1000	1e+07	.	1	1	1	1	1	1	1	1	1	1	1	1	1	1	1	1	1	1	1	1
20000	15000	35000	.	1	1	1	1	1	1	1	1	1	1	1	1	1	1	1	1	1	1	1	1
0	0.1	40	.	1	1	1	1	1	1	1	1	1	1	1	1	1	1	1	1	1	1	1	1
1	0.1	40	.	1	1	1	1	1	1	1	1	1	1	1	1	1	1	1	1	1	1	1	1
70	50	400	.	1	1	1	1	1	1	1	1	1	1	1	1	1	1	1	1	1	1	1	1
3100	1500	7000	.	1	1	1	1	1	1	1	1	1	1	1	1	1	1	1	1	1	1	1	1
0.1	0.1	0.5	.	1	1	1	1	1	1	1	1	1	1	1	1	1	1	1	1	1	1	1	1
.	.	.	.	0	0	0	0	0	0	0	0	0	0	0	0	0	0	0	0	0	0	0	0
.	.	.	.	0	0	0	0	0	0	0	0	0	0	0	0	0	0	0	0	0	0	0	0
.	.	.	.	0	0	0	0	0	0	0	0	0	0	0	0	0	0	0	0	0	0	0	0
.	.	.	.	0	0	0	0	0	0	0	0	0	0	0	0	0	0	0	0	0	0	0	0
.	.	.	.	0	0	0	0	0	0	0	0	0	0	0	0	0	0	0	0	0	0	0	0
.	.	.	.	0	0	0	0	0	0	0	0	0	0	0	0	0	0	0	0	0	0	0	0
.	.	.	.	0	0	0	0	0	0	0	0	0	0	0	0	0	0	0	0	0	0	0	0
.	.	.	.	0	0	0	0	0	0	0	0	0	0	0	0	0	0	0	0	0	0	0	0
 
