25	8	20
541.734	270	8200	.	0	0	0	0	0	0	0	0	0	0	0	0	0	0	0	0	0	0	0	0
2229.33	1100	3500	.	0	0	0	0	0	0	0	0	0	0	0	0	0	0	0	0	0	0	0	0
11.4598	5	20	.	0	0	0	0	0	0	0	0	0	0	0	0	0	0	0	0	0	0	0	0
1.09353e-7	5e-8	2e-7	.	0	0	0	0	0	0	0	0	0	0	0	0	0	0	0	0	0	0	0	0
550.102	270	830	.	0	0	0	0	0	0	0	0	0	0	0	0	0	0	0	0	0	0	0	0
4583.53	2200	6900	.	0	0	0	0	0	0	0	0	0	0	0	0	0	0	0	0	0	0	0	0
3.74718e-9	1e-9	5e-9	.	0	0	0	0	0	0	0	0	0	0	0	0	0	0	0	0	0	0	0	0
0.000210684	1e-9	1	.	1	1	1	1	1	1	1	1	1	1	1	1	1	1	1	1	1	1	1	1
0.000548105	0.0002	0.0008	.	0	0	0	0	0	0	0	0	0	0	0	0	0	0	0	0	0	0	0	0
9.09997e-6	1e-7	1e-1	.	1	1	1	1	1	1	1	1	1	1	1	1	1	1	1	1	1	1	1	1
5.68962e-8	2e-8	8e-8	.	0	0	0	0	0	0	0	0	0	0	0	0	0	0	0	0	0	0	0	0
2.51209e-6	1e-6	3e-6	.	0	0	0	0	0	0	0	0	0	0	0	0	0	0	0	0	0	0	0	0
1.59642	0.7	2.5	.	0	0	0	0	0	0	0	0	0	0	0	0	0	0	0	0	0	0	0	0
1.46009	0.7	2.5	.	0	0	0	0	0	0	0	0	0	0	0	0	0	0	0	0	0	0	0	0
0.000218942	1e-7	1	.	1	1	1	1	1	1	1	1	1	1	1	1	1	1	1	1	1	1	1	1
142743	150000	250000	.	1	1	1	1	1	1	1	1	1	1	1	1	1	1	1	1	1	1	1	1
0.14273	0.05	0.3	.	0	0	0	0	0	0	0	0	0	0	0	0	0	0	0	0	0	0	0	0
6.91982e-5	1e-9	1	.	1	1	1	1	1	1	1	1	1	1	1	1	1	1	1	1	1	1	1	1
13690.2	1000	1e+7	.	0	0	0	0	0	0	0	0	0	0	0	0	0	0	0	0	0	0	0	0
20000	15000	35000	.	0	0	0	0	0	0	0	0	0	0	0	0	0	0	0	0	0	0	0	0
0	0.1	40	.	0	0	0	0	0	0	0	0	0	0	0	0	0	0	0	0	0	0	0	0
1	0.1	40	.	0	0	0	0	0	0	0	0	0	0	0	0	0	0	0	0	0	0	0	0
70	50	400	.	0	0	0	0	0	0	0	0	0	0	0	0	0	0	0	0	0	0	0	0
3515.77	1e+3	2e+4	.	1	1	1	1	1	1	1	1	1	1	1	1	1	1	1	1	1	1	1	1
0.268337	0.00001	1.	.	1	1	1	1	1	1	1	1	1	1	1	1	1	1	1	1	1	1	1	1
.	.	.	.	1	1	1	1	1	1	1	1	1	1	1	1	1	1	1	1	1	1	1	1
.	.	.	.	1	1	1	1	1	1	1	1	1	1	1	1	1	1	1	1	1	1	1	1
.	.	.	.	1	1	1	1	1	1	1	1	1	1	1	1	1	1	1	1	1	1	1	1
.	.	.	.	1	1	1	1	1	1	1	1	1	1	1	1	1	1	1	1	1	1	1	1
.	.	.	.	0	0	0	0	0	0	0	0	0	0	0	0	0	0	0	0	0	0	0	0
.	.	.	.	0	0	0	0	0	0	0	0	0	0	0	0	0	0	0	0	0	0	0	0
.	.	.	.	0	0	0	0	0	0	0	0	0	0	0	0	0	0	0	0	0	0	0	0
.	.	.	.	0	0	0	0	0	0	0	0	0	0	0	0	0	0	0	0	0	0	0	0
