50	6	1		
1.02712	1	1000	.	1
15981.2	6108.2	18324.6	.	1
40178.7	13399.3	60197.9	.	1
6.23E-08	1.00E-08	7.71E-07	.	1
4652.75	2000	10000	.	1
5122.33	2500	15000	.	1
3.28E-06	5.00E-07	1.00E-05	.	1
0.000102033	5.00E-05	0.001	.	1
0.000303305	5.00E-05	0.001	.	1
6.54E-07	5.00E-08	0.0001	.	1
2.06E-06	5.00E-07	1.00E-05	.	1
1.11E-05	5.00E-06	1.00E-04	.	1
2.53913	0.01	1000	.	1
0.352172	0.01	100	.	1
0.0181956	0.001	1	.	1
4.59E+06	10000	6.00E+06	.	1
3286.47	2000	15000	.	1
1.18E-05	5.90E-06	1.77E-05	.	0
1	1.00E-05	1	.	0
3.25878	1	10000	.	1
0	0	0	.	1
0	0	0	.	1
0	0	0	.	1
54743.5	500	100000	.	1
0.0532194	1.00E-05	0.99	.	1
1.09000895708389	0.1	10	.	0
0.233958025680174	0.1	10	.	0
0.573756741756204	0.1	10	.	0
0.632954097003648	0.1	10	.	0
0.322546880876901	0.1	10	.	0
1.52054826612108	0.1	10	.	0
0.27312241637909	0.1	10	.	0
0.875164897631159	0.1	10	.	0
0.826369496051829	0.1	10	.	0
2.21483698749654	0.1	10	.	0
483.003511089312	0.1	10	.	0
0.407046167960353	0.1	10	.	0
0.448441001445377	0.1	10	.	0
4.1458719035017	0.1	10	.	0
0.103050187957528	0.1	10	.	0
0.061461058782487	0.1	10	.	0
5.52936737593832	0.1	10	.	0
1	0.1	10	.	0
39514.7	0.1	10	.	0
0.319438562897772	0.1	10	.	0
1	0.1	10	.	0
1	0.1	10	.	0
1	0.1	10	.	0
0.469403673495483	0.001	1	.	1
0.175786273426608	0.1	10	.	0
.	.	.	.	0
.	.	.	.	0
.	.	.	.	0
.	.	.	.	0
.	.	.	.	0
.	.	.	.	0
