25	6	20
545.415	1	1000	.	1	1	1	1	1	1	1	1	1	1	1	1	1	1	1	1	1	1	1	1
11512.6	5000	20000	.	1	1	1	1	1	1	1	1	1	1	1	1	1	1	1	1	1	1	1	1
54373.7	15000	65000	.	1	1	1	1	1	1	1	1	1	1	1	1	1	1	1	1	1	1	1	1
7.32712e-8	1e-9	5e-7	.	1	1	1	1	1	1	1	1	1	1	1	1	1	1	1	1	1	1	1	1
6719.81	2917.79	12000	.	1	1	1	1	1	1	1	1	1	1	1	1	1	1	1	1	1	1	1	1
10334.1	3000	17500	.	1	1	1	1	1	1	1	1	1	1	1	1	1	1	1	1	1	1	1	1
7.21738e-7	5e-7	1e-5	.	1	1	1	1	1	1	1	1	1	1	1	1	1	1	1	1	1	1	1	1
0.000142261	4.3e-5	0.001	.	1	1	1	1	1	1	1	1	1	1	1	1	1	1	1	1	1	1	1	1
0.000486686	0.0001	0.005	.	1	1	1	1	1	1	1	1	1	1	1	1	1	1	1	1	1	1	1	1
4.54856e-7	1e-7	0.000425	.	1	1	1	1	1	1	1	1	1	1	1	1	1	1	1	1	1	1	1	1
7.99727e-5	1e-6	0.002	.	1	1	1	1	1	1	1	1	1	1	1	1	1	1	1	1	1	1	1	1
1.19671e-6	1.85e-7	1e-5	.	1	1	1	1	1	1	1	1	1	1	1	1	1	1	1	1	1	1	1	1
1.36196	0.064122	10	.	1	1	1	1	1	1	1	1	1	1	1	1	1	1	1	1	1	1	1	1
0.439588	0.05	5	.	1	1	1	1	1	1	1	1	1	1	1	1	1	1	1	1	1	1	1	1
0.0484474	0.001	0.1	.	1	1	1	1	1	1	1	1	1	1	1	1	1	1	1	1	1	1	1	1
4.06257e+6	750000	5e+6	.	1	1	1	1	1	1	1	1	1	1	1	1	1	1	1	1	1	1	1	1
24975.4	5000	25000	.	1	1	1	1	1	1	1	1	1	1	1	1	1	1	1	1	1	1	1	1
1.18e-5	5.91e-6	1.77e-5	.	0	0	0	0	0	0	0	0	0	0	0	0	0	0	0	0	0	0	0	0
39514.7	19757.3	59272.1	.	0	0	0	0	0	0	0	0	0	0	0	0	0	0	0	0	0	0	0	0
5188.95	1	10000	.	1	1	1	1	1	1	1	1	1	1	1	1	1	1	1	1	1	1	1	1
0	0	450	.	0	0	0	0	0	0	0	0	0	0	0	0	0	0	0	0	0	0	0	0
0	0	200	.	0	0	0	0	0	0	0	0	0	0	0	0	0	0	0	0	0	0	0	0
0	0	200	.	0	0	0	0	0	0	0	0	0	0	0	0	0	0	0	0	0	0	0	0
47324.2	5000	60000	.	1	1	1	1	1	1	1	1	1	1	1	1	1	1	1	1	1	1	1	1
0.0744996	0.00024958	0.99	.	1	1	1	1	1	1	1	1	1	1	1	1	1	1	1	1	1	1	1	1
.	.	.	.	0	0	0	0	0	0	0	0	0	0	0	0	0	0	0	0	0	0	0	0
.	.	.	.	0	0	0	0	0	0	0	0	0	0	0	0	0	0	0	0	0	0	0	0
.	.	.	.	0	0	0	0	0	0	0	0	0	0	0	0	0	0	0	0	0	0	0	0
.	.	.	.	0	0	0	0	0	0	0	0	0	0	0	0	0	0	0	0	0	0	0	0
.	.	.	.	0	0	0	0	0	0	0	0	0	0	0	0	0	0	0	0	0	0	0	0
.	.	.	.	0	0	0	0	0	0	0	0	0	0	0	0	0	0	0	0	0	0	0	0
