25	6	3
635.226	1	1000	.	1	1	0
9979.89	5500.25	16500.8	.	1	1	0
43897	15574.6	46723.8	.	1	1	0
8.05214e-08	5e-09	5e-07	.	1	1	0
3242.51	100	7500	.	1	1	0
6081.37	1000	10000	.	1	1	0
9.80914e-07	1e-07	1e-06	.	1	1	0
9.06e-05	1e-05	0.001	.	1	0	1
7.68e-05	1e-06	0.001	.	1	0	1
7.29579e-06	9e-07	5e-05	.	1	1	1
3.45502e-05	1e-05	0.01	.	1	1	0
2.62724e-07	5e-08	5e-06	.	1	1	0
1.67038	0.005	100	.	1	1	0
0.368983	0.005	100	.	1	1	0
1.19e-05	1e-07	0.001	.	1	0	1
1.93e+06	100000	1e+07	.	1	0	1
7877.48	10	10000	.	1	1	0
1.18e-05	1e-07	0.0001	.	0	0	0
39514.7	19757.3	59272.1	.	0	0	0
9584.69	1	10000	.	1	1	0
0	0	0	.	0	0	0
0	0	0	.	0	0	0
0	0	0	.	0	0	0
61001.6	5000	100000	.	1	0	1
7.40049e-06	1e-06	1.1	.	1	1	1
.	.	.	.	0	0	0
.	.	.	.	0	0	0
.	.	.	.	0	0	0
.	.	.	.	0	0	0
.	.	.	.	0	1	0
.	.	.	.	0	0	0
