25	6	1		
17.0318	1	1000	.	1
9056.22	5500.25	16500.8	.	1
31218.1	15574.6	46723.8	.	1
4.61E-08	5.00E-09	5.00E-07	.	1
1912.77	100	7500	.	1
4137.95	1000	10000	.	1
8.48E-07	1.00E-07	1.00E-06	.	1
9.06E-05	1.00E-05	0.001	.	1
7.68E-05	1.00E-06	0.001	.	1
1.74E-06	9.00E-07	5.00E-05	.	1
0.000909649	1.00E-05	0.01	.	1
1.29E-07	5.00E-08	5.00E-06	.	1
1.45631	0.005	100	.	1
0.26838	0.005	100	.	1
1.19E-05	1.00E-07	0.001	.	1
1.93E+06	100000	1.00E+07	.	1
1038.98	10	10000	.	1
1.18E-05	1.00E-07	1.00E-04	.	0
39514.7	19757.3	59272.1	.	0
1399.48	1	10000	.	1
0	0	0	.	0
0	0	0	.	0
0	0	0	.	0
61001.6	5000	100000	.	1
0.00149316	1.00E-06	1.1	.	1
.	.	.	.	0
.	.	.	.	0
.	.	.	.	0
.	.	.	.	0
.	.	.	.	0
.	.	.	.	0
