25	6	20
39.3664	19.6832	59.0496	.	1	1	1	1	1	1	1	1	1	1	1	1	1	1	1	1	1	1	1	1
34024.1	17012.05	51036.15	.	1	1	1	1	1	1	1	1	1	1	1	1	1	1	1	1	1	1	1	1
19853.7	9926.85	29780.55	.	1	1	1	1	1	1	1	1	1	1	1	1	1	1	1	1	1	1	1	1
5.97E-08	2.984035E-08	8.952105E-08	.	1	1	1	1	1	1	1	1	1	1	1	1	1	1	1	1	1	1	1	1
25508.7	12754.35	38263.05	.	1	1	1	1	1	1	1	1	1	1	1	1	1	1	1	1	1	1	1	1
10797.4	5398.7	16196.1	.	1	1	1	1	1	1	1	1	1	1	1	1	1	1	1	1	1	1	1	1
1.37E-09	6.83925E-10	2.051775E-09	.	1	1	1	1	1	1	1	1	1	1	1	1	1	1	1	1	1	1	1	1
8.24E-05	4.11861E-05	0.0001235583	.	1	1	1	1	1	1	1	1	1	1	1	1	1	1	1	1	1	1	1	1
5.92E-05	2.961575E-05	8.884725E-05	.	1	1	1	1	1	1	1	1	1	1	1	1	1	1	1	1	1	1	1	1
2.69E-06	1.345265E-06	4.035795E-06	.	1	1	1	1	1	1	1	1	1	1	1	1	1	1	1	1	1	1	1	1
0.0050336	0.0025168	0.0075504	.	1	1	1	1	1	1	1	1	1	1	1	1	1	1	1	1	1	1	1	1
1.23E-08	6.1549E-09	1.84647E-08	.	1	1	1	1	1	1	1	1	1	1	1	1	1	1	1	1	1	1	1	1
0.378016	0.189008	0.567024	.	1	1	1	1	1	1	1	1	1	1	1	1	1	1	1	1	1	1	1	1
1.46009	0.730045	2.190135	.	1	1	1	1	1	1	1	1	1	1	1	1	1	1	1	1	1	1	1	1
2.44E-06	1.21859E-06	3.65577E-06	.	1	1	1	1	1	1	1	1	1	1	1	1	1	1	1	1	1	1	1	1
1.90E+06	952325	2856975	.	1	1	1	1	1	1	1	1	1	1	1	1	1	1	1	1	1	1	1	1
29999.9	14999.95	44999.85	.	1	1	1	1	1	1	1	1	1	1	1	1	1	1	1	1	1	1	1	1
1	0.5	1.5	.	0	0	0	0	0	0	0	0	0	0	0	0	0	0	0	0	0	0	0	0
30000	15000	45000	.	0	0	0	0	0	0	0	0	0	0	0	0	0	0	0	0	0	0	0	0
323.637	161.8185	485.4555	.	1	1	1	1	1	1	1	1	1	1	1	1	1	1	1	1	1	1	1	1
0	0	500	.	0	0	0	0	0	0	0	0	0	0	0	0	0	0	0	0	0	0	0	0
0	0	500	.	0	0	0	0	0	0	0	0	0	0	0	0	0	0	0	0	0	0	0	0
0	0	500	.	0	0	0	0	0	0	0	0	0	0	0	0	0	0	0	0	0	0	0	0
23867	11933.5	35800.5	.	1	1	1	1	1	1	1	1	1	1	1	1	1	1	1	1	1	1	1	1
0.00583878	0.00291939	0.00875817	.	1	1	1	1	1	1	1	1	1	1	1	1	1	1	1	1	1	1	1	1
.	.	.	.	0	0	0	0	0	0	0	0	0	0	0	0	0	0	0	0	0	0	0	0
.	.	.	.	0	0	0	0	0	0	0	0	0	0	0	0	0	0	0	0	0	0	0	0
.	.	.	.	0	0	0	0	0	0	0	0	0	0	0	0	0	0	0	0	0	0	0	0
.	.	.	.	0	0	0	0	0	0	0	0	0	0	0	0	0	0	0	0	0	0	0	0
.	.	.	.	0	0	0	0	0	0	0	0	0	0	0	0	0	0	0	0	0	0	0	0
.	.	.	.	0	0	0	0	0	0	0	0	0	0	0	0	0	0	0	0	0	0	0	0
