25	6	21																						
1.86858	1	1000	.	1	1	1	1	1	1	1	1	1	1	1	1	1	1	1	1	1	1	1	1	0
16046.5	8023.25	24069.75	.	1	1	1	1	1	1	1	1	1	1	1	1	1	1	1	1	1	1	1	1	0
62869.6	31434.8	94304.4	.	1	1	1	1	1	1	1	1	1	1	1	1	1	1	1	1	1	1	1	1	0
9.84E-08	4.9182E-08	1.47546E-07	.	1	1	1	1	1	1	1	1	1	1	1	1	1	1	1	1	1	1	1	1	0
6130.31	3065.155	9195.465	.	1	1	1	1	1	1	1	1	1	1	1	1	1	1	1	1	1	1	1	1	0
10822.5	5411.25	16233.75	.	1	1	1	1	1	1	1	1	1	1	1	1	1	1	1	1	1	1	1	1	0
1.23E-06	6.1427E-07	1.84281E-06	.	1	1	1	1	1	1	1	1	1	1	1	1	1	1	1	1	1	1	1	1	0
0.0182206	0.0091103	0.0273309	.	1	1	1	1	1	1	1	1	1	1	1	1	1	1	1	1	1	1	1	1	1
0.000222124	0.000111062	0.000333186	.	0	0	0	0	0	0	0	0	0	0	0	0	0	0	0	0	0	0	0	0	0
9.64E-07	1.00E-07	0.000425	.	1	1	1	1	1	1	1	1	1	1	1	1	1	1	1	1	1	1	1	1	1
1.31E-05	6.56385E-06	1.969155E-05	.	1	1	1	1	1	1	1	1	1	1	1	1	1	1	1	1	1	1	1	1	0
4.19E-07	2.09558E-07	6.28674E-07	.	1	1	1	1	1	1	1	1	1	1	1	1	1	1	1	1	1	1	1	1	0
2.12717	1.063585	3.190755	.	1	1	1	1	1	1	1	1	1	1	1	1	1	1	1	1	1	1	1	1	0
0.430087	0.2150435	0.6451305	.	1	1	1	1	1	1	1	1	1	1	1	1	1	1	1	1	1	1	1	1	0
0.162292	0.081146	0.243438	.	1	1	1	1	1	1	1	1	1	1	1	1	1	1	1	1	1	1	1	1	1
4.74E+06	750000	5.00E+06	.	1	1	1	1	1	1	1	1	1	1	1	1	1	1	1	1	1	1	1	1	1
17387.5	8693.75	26081.25	.	1	1	1	1	1	1	1	1	1	1	1	1	1	1	1	1	1	1	1	1	0
1.18E-05	5.91E-06	1.77E-05	.	0	0	0	0	0	0	0	0	0	0	0	0	0	0	0	0	0	0	0	0	0
0.00567892	1E-05	100	.	1	1	1	1	1	1	1	1	1	1	1	1	1	1	1	1	1	1	1	1	1
83.0999	1	5000	.	1	1	1	1	1	1	1	1	1	1	1	1	1	1	1	1	1	1	1	1	0
0	0	450	.	0	0	0	0	0	0	0	0	0	0	0	0	0	0	0	0	0	0	0	0	0
0	0	200	.	0	0	0	0	0	0	0	0	0	0	0	0	0	0	0	0	0	0	0	0	0
0	0	200	.	0	0	0	0	0	0	0	0	0	0	0	0	0	0	0	0	0	0	0	0	0
24736.2	5000	60000	.	1	1	1	1	1	1	1	1	1	1	1	1	1	1	1	1	1	1	1	1	1
0.00119491	0.00024958	0.99	.	1	1	1	1	1	1	1	1	1	1	1	1	1	1	1	1	1	1	1	1	1
.	.	.	.	0	0	0	0	0	0	0	0	0	0	0	0	0	0	0	0	0	0	0	0	0
.	.	.	.	0	0	0	0	0	0	0	0	0	0	0	0	0	0	0	0	0	0	0	0	0
.	.	.	.	0	0	0	0	0	0	0	0	0	0	0	0	0	0	0	0	0	0	0	0	0
.	.	.	.	0	0	0	0	0	0	0	0	0	0	0	0	0	0	0	0	0	0	0	0	0
.	.	.	.	0	0	0	0	0	0	0	0	0	0	0	0	0	0	0	0	0	0	0	0	0
.	.	.	.	0	0	0	0	0	0	0	0	0	0	0	0	0	0	0	0	0	0	0	0	0
