25	6	20																					
8.68899	1	1000	.	1	1	1	1	1	1	1	1	1	1	1	1	1	1	1	1	1	1	1	1
12216.4	6108.2	18324.6	.	1	1	1	1	1	1	1	1	1	1	1	1	1	1	1	1	1	1	1	1
26798.6	13399.3	40197.9	.	1	1	1	1	1	1	1	1	1	1	1	1	1	1	1	1	1	1	1	1
5.14284E-08	2.57142E-08	7.71426E-08	.	1	1	1	1	1	1	1	1	1	1	1	1	1	1	1	1	1	1	1	1
5909.14	2954.57	8863.71	.	1	1	1	1	1	1	1	1	1	1	1	1	1	1	1	1	1	1	1	1
8715.88	4357.94	13073.82	.	1	1	1	1	1	1	1	1	1	1	1	1	1	1	1	1	1	1	1	1
3.30157E-06	1.650785E-06	4.952355E-06	.	1	1	1	1	1	1	1	1	1	1	1	1	1	1	1	1	1	1	1	1
0.000158077	7.90385E-05	0.0002371155	.	1	1	1	1	1	1	1	1	1	1	1	1	1	1	1	1	1	1	1	1
0.000380317	0.0001901585	0.0005704755	.	1	1	1	1	1	1	1	1	1	1	1	1	1	1	1	1	1	1	1	1
2.70278E-07	1E-08	0.001	.	1	1	1	1	1	1	1	1	1	1	1	1	1	1	1	1	1	1	1	1
1.40369E-06	7.01845E-07	2.105535E-06	.	1	1	1	1	1	1	1	1	1	1	1	1	1	1	1	1	1	1	1	1
9.82102E-06	4.91051E-06	1.473153E-05	.	1	1	1	1	1	1	1	1	1	1	1	1	1	1	1	1	1	1	1	1
2.60573	1.302865	3.908595	.	1	1	1	1	1	1	1	1	1	1	1	1	1	1	1	1	1	1	1	1
0.24393	0.121965	0.365895	.	1	1	1	1	1	1	1	1	1	1	1	1	1	1	1	1	1	1	1	1
0.0135305	0.00676525	0.02029575	.	1	1	1	1	1	1	1	1	1	1	1	1	1	1	1	1	1	1	1	1
2.21519E+06	750000	5000000	.	1	1	1	1	1	1	1	1	1	1	1	1	1	1	1	1	1	1	1	1
5000.39	2500.195	7500.585	.	1	1	1	1	1	1	1	1	1	1	1	1	1	1	1	1	1	1	1	1
1.18000E-05	5.9E-06	1.77E-05	.	0	0	0	0	0	0	0	0	0	0	0	0	0	0	0	0	0	0	0	0
1	1E-05	1	.	0	0	0	0	0	0	0	0	0	0	0	0	0	0	0	0	0	0	0	0
5.68403	1	5000	.	1	1	1	1	1	1	1	1	1	1	1	1	1	1	1	1	1	1	1	1
0	0	0	.	0	0	0	0	0	0	0	0	0	0	0	0	0	0	0	0	0	0	0	0
0	0	0	.	0	0	0	0	0	0	0	0	0	0	0	0	0	0	0	0	0	0	0	0
0	0	0	.	0	0	0	0	0	0	0	0	0	0	0	0	0	0	0	0	0	0	0	0
39821.3	3000	60000	.	1	1	1	1	1	1	1	1	1	1	1	1	1	1	1	1	1	1	1	1
0.0436255	0.00024958	0.99	.	1	1	1	1	1	1	1	1	1	1	1	1	1	1	1	1	1	1	1	1
.	.	.	.	0	0	0	0	0	0	0	0	0	0	0	0	0	0	0	0	0	0	0	0
.	.	.	.	0	0	0	0	0	0	0	0	0	0	0	0	0	0	0	0	0	0	0	0
.	.	.	.	0	0	0	0	0	0	0	0	0	0	0	0	0	0	0	0	0	0	0	0
.	.	.	.	0	0	0	0	0	0	0	0	0	0	0	0	0	0	0	0	0	0	0	0
.	.	.	.	0	0	0	0	0	0	0	0	0	0	0	0	0	0	0	0	0	0	0	0
.	.	.	.	0	0	0	0	0	0	0	0	0	0	0	0	0	0	0	0	0	0	0	0
