29	8	1	
1.02712	0.51356	1.54068	.	0
3216.01	1500	7500	.	1
18196.1	7500	30000	.	1
5.89E-08	2.94434E-08	8.83302E-08	.	1
4652.75	2326.375	6979.125	.	0
5122.33	2561.165	7683.495	.	0
3.01E-06	1.50456E-06	4.51368E-06	.	1
0.000102033	5.10165E-05	0.0001530495	.	0
0.000303305	0.0001516525	0.0004549575	.	0
3.42E-06	1.709895E-06	5.129685E-06	.	1
2.06E-06	1.03E-06	3.09E-06	.	0
1.11E-05	5.55E-06	1.665E-05	.	0
2.53913	1.269565	3.808695	.	0
0.352172	0.176086	0.528258	.	0
0.0181956	0.0090978	0.0272934	.	0
435186	50000	1000000	.	1
3286.47	1643.235	4929.705	.	0
1.18E-05	5.9E-06	1.77E-05	.	0
1	0.5	1.5	.	0
3.25878	1.62939	4.88817	.	0
0	0	0	.	0
0	0	0	.	0
0	0	0	.	0
21337.6	1000	35000	.	1
4.32E-05	2.161585E-05	6.484755E-05	.	1
0.0271191	0.001	10	.	1
0.0015731	0.001	100	.	1
200	0.001	10	.	1
0.00164106	0.001	100	.	1
.	.	.	.	0
.	.	.	.	0
.	.	.	.	0
.	.	.	.	0
.	.	.	.	0
.	.	.	.	0
.	.	.	.	0
.	.	.	.	0
