29	8	7								
1.02712	0.51356	1.54068	.	0	0	0	0	0	0	0
15981.2	500	30000	.	0	0	0	1	0	0	0
40178.7	15000	75000	.	0	0	0	1	0	0	0
6.23E-08	1E-09	9.35037E-05	.	0	0	1	1	0	0	0
4652.75	2326.375	6979.125	.	0	0	0	0	0	0	0
5122.33	2561.165	7683.495	.	0	0	0	0	0	0	0
3.28E-06	1E-07	0.0005	.	0	0	1	1	0	0	0
0.000102033	5.10165E-05	0.01530495	.	0	0	0	0	1	1	1
0.000303305	1.516525E-06	0.04549575	.	0	0	0	0	0	1	1
6.54E-07	1E-08	0.01	.	0	1	1	1	0	0	1
2.06E-06	1.029595E-06	3.088785E-06	.	0	0	0	0	0	0	0
1.11E-05	5.55905E-06	1.667715E-05	.	0	0	0	0	0	0	0
2.53913	1.269565	3.808695	.	0	0	0	0	0	0	0
0.352172	0.176086	0.528258	.	0	0	0	0	0	0	0
0.0181956	0.0090978	0.0272934	.	0	0	0	0	0	0	0
4.59E+06	5000	5000000	.	1	1	1	1	1	1	1
3286.47	1643.235	4929.705	.	0	0	0	0	0	0	0
1.18E-05	5.9E-06	1.77E-05	.	0	0	0	0	0	0	0
1	0.5	1.5	.	0	0	0	0	0	0	0
3.25878	1.62939	4.88817	.	0	0	0	0	0	0	0
0	0	0	.	0	0	0	0	0	0	0
0	0	0	.	0	0	0	0	0	0	0
0	0	0	.	0	0	0	0	0	0	0
54743.5	500	60000	.	1	1	1	1	1	1	1
0.0532194	1E-05	0.99	.	0	1	1	1	0	0	1
0.5	0.001	10	.	1	1	1	1	1	1	1
0	0.001	100	.	1	1	1	1	1	1	1
2	0.001	10	.	1	1	1	1	1	1	1
0	0.001	100	.	1	1	1	1	1	1	1
.	.	.	.	0	0	0	0	0	0	0
.	.	.	.	0	0	0	0	0	0	0
.	.	.	.	0	0	0	0	0	0	0
.	.	.	.	0	0	0	0	0	0	0
.	.	.	.	0	0	0	0	0	0	0
.	.	.	.	0	0	0	0	0	0	0
.	.	.	.	0	0	0	0	0	0	0
.	.	.	.	0	0	0	0	0	0	0
