25	6	20
115.521	38.8	116.4	.	1	1	1	1	1	1	1	1	1	1	1	1	1	1	1	1	1	1	1	1
24530.4	9200	27600	.	1	1	1	1	1	1	1	1	1	1	1	1	1	1	1	1	1	1	1	1
20912.3	9500	28500	.	1	1	1	1	1	1	1	1	1	1	1	1	1	1	1	1	1	1	1	1
4.56893e-8	1.72E-08	5.16E-08	.	1	1	1	1	1	1	1	1	1	1	1	1	1	1	1	1	1	1	1	1
6684.87	3485	10455	.	1	1	1	1	1	1	1	1	1	1	1	1	1	1	1	1	1	1	1	1
9437.88	3370	10110	.	1	1	1	1	1	1	1	1	1	1	1	1	1	1	1	1	1	1	1	1
1.72903e-6	6.4E-07	1.92E-06	.	1	1	1	1	1	1	1	1	1	1	1	1	1	1	1	1	1	1	1	1
0.000218462	0.00015	0.00045	.	1	1	1	1	1	1	1	1	1	1	1	1	1	1	1	1	1	1	1	1
0.000677762	0.0004295	0.0012885	.	1	1	1	1	1	1	1	1	1	1	1	1	1	1	1	1	1	1	1	1
3.64444e-7	1.715E-07	5.145E-07	.	1	1	1	1	1	1	1	1	1	1	1	1	1	1	1	1	1	1	1	1
0.000262421	8.8E-05	0.000264	.	1	1	1	1	1	1	1	1	1	1	1	1	1	1	1	1	1	1	1	1
7.74359e-6	2.955E-06	8.865E-06	.	1	1	1	1	1	1	1	1	1	1	1	1	1	1	1	1	1	1	1	1
1.79942	0.865	2.595	.	1	1	1	1	1	1	1	1	1	1	1	1	1	1	1	1	1	1	1	1
0.468559	0.258	0.774	.	1	1	1	1	1	1	1	1	1	1	1	1	1	1	1	1	1	1	1	1
0.00023589	0.000209	0.000627	.	1	1	1	1	1	1	1	1	1	1	1	1	1	1	1	1	1	1	1	1
2.28546e+6	750000	4.e+6	.	1	1	1	1	1	1	1	1	1	1	1	1	1	1	1	1	1	1	1	1
10617.9	6700	20100	.	1	1	1	1	1	1	1	1	1	1	1	1	1	1	1	1	1	1	1	1
1.49e-5	7.45e-6	1.1	.	0	0	0	0	0	0	0	0	0	0	0	0	0	0	0	0	0	0	0	0
30000	15000	45000	.	0	0	0	0	0	0	0	0	0	0	0	0	0	0	0	0	0	0	0	0
455.912	50	6000	.	1	1	1	1	1	1	1	1	1	1	1	1	1	1	1	1	1	1	1	1
1.0209	1	500	.	1	1	1	1	1	1	1	1	1	1	1	1	1	1	1	1	1	1	1	1
1.26267	1	200	.	1	1	1	1	1	1	1	1	1	1	1	1	1	1	1	1	1	1	1	1
4.87099	1	200	.	1	1	1	1	1	1	1	1	1	1	1	1	1	1	1	1	1	1	1	1
33896.3	14600	60000	.	1	1	1	1	1	1	1	1	1	1	1	1	1	1	1	1	1	1	1	1
0.0931455	0.00005	1	.	1	1	1	1	1	1	1	1	1	1	1	1	1	1	1	1	1	1	1	1
.	.	.	.	0	0	0	0	0	0	0	0	0	0	0	0	0	0	0	0	0	0	0	0
.	.	.	.	0	0	0	0	0	0	0	0	0	0	0	0	0	0	0	0	0	0	0	0
.	.	.	.	0	0	0	0	0	0	0	0	0	0	0	0	0	0	0	0	0	0	0	0
.	.	.	.	0	0	0	0	0	0	0	0	0	0	0	0	0	0	0	0	0	0	0	0
.	.	.	.	0	0	0	0	0	0	0	0	0	0	0	0	0	0	0	0	0	0	0	0
.	.	.	.	0	0	0	0	0	0	0	0	0	0	0	0	0	0	0	0	0	0	0	0
