28	10
107.09133	10000	6.65156	12.9198	1.40029	0	0.363799	0	0	0	0.0136	1.5	241.128	0.01	0	1	0.75	0	0.75	200	0.1	4	0.00185	1	1	1	20	1	1
207.09684	10000	5.97235	13.6404	1.37503	0	0.159584	0	0	0	0.0136	1.5	242.057	0.01	0	1	0.75	0	0.75	200	0.1	4	0.00185	1	1	1	20	1	1
307.08415	10000	6.46748	14.09	1.65144	0	0.169898	0	0	0	0.0136	1.5	229.007	0.01	0	1	0.75	0	0.75	200	0.1	4	0.00185	1	1	1	20	1	1
407.14062	10000	7.06437	14.6866	1.09415	0	0.383114	0	0	0	0.0136	1.5	221.807	0.01	0	1	0.75	0	0.75	200	0.1	4	0.00185	1	1	1	20	1	1
507.11258	10000	7.35527	13.6185	1.09103	0	0.256503	0	0	0	0.0136	1.5	230.036	0.01	0	1	0.75	0	0.75	200	0.1	4	0.00185	1	1	1	20	1	1
606.92216	10000	6.98117	13.2127	1.41606	0	1.12979	0	0	0	0.0136	1.5	230.6	0.01	0	1	0.75	0	0.75	200	0.1	4	0.00185	1	1	1	20	1	1
707.07776	10000	8.10525	13.5175	1.41716	0	0.378206	0	0	0	0.0136	1.5	220.013	0.01	0	1	0.75	0	0.75	200	0.1	4	0.00185	1	1	1	20	1	1
807.01313	10000	6.68324	13.1802	1.46908	0	0.87855	0	0	0	0.0136	1.5	234.62	0.01	0	1	0.75	0	0.75	200	0.1	4	0.00185	1	1	1	20	1	1
907.14543	10000	6.56377	12.6982	1.23685	0	0.549312	0	0	0	0.0136	1.5	245.514	0.01	0	1	0.75	0	0.75	200	0.1	4	0.00185	1	1	1	20	1	1
1007.00515	10000	7.42839	13.3543	1.42877	0	0.358123	0	0	0	0.0136	1.5	228.068	0.01	0	1	0.75	0	0.75	200	0.1	4	0.00185	1	1	1	20	1	1
