28	10
102.54669	10000	9.6545	6.21613	0.42394	0	0.700421	0	0	0	0.0421	1.5	311.781	0.01	0	1	0.75	0	0.75	200	0.1	4	0.00417	1	1	1	20	1	1
202.52653	10000	9.63803	5.80979	0.370243	0	1.01628	0	0	0	0.0421	1.5	318.48	0.01	0	1	0.75	0	0.75	200	0.1	4	0.00417	1	1	1	20	1	1
302.52547	10000	10.1186	5.9223	0.378234	0	1.07781	0	0	0	0.0421	1.5	307.123	0.01	0	1	0.75	0	0.75	200	0.1	4	0.00417	1	1	1	20	1	1
402.50447	10000	10.1904	6.243	0.358155	0	0.696789	0	0	0	0.0421	1.5	303.072	0.01	0	1	0.75	0	0.75	200	0.1	4	0.00417	1	1	1	20	1	1
502.37062	10000	9.62253	6.04108	0.388629	0	0.535964	0	0	0	0.0421	1.5	317.521	0.01	0	1	0.75	0	0.75	200	0.1	4	0.00417	1	1	1	20	1	1
602.4299	10000	9.84104	6.19223	0.395291	0	0.137388	0	0	0	0.0421	1.5	313.898	0.01	0	1	0.75	0	0.75	200	0.1	4	0.00417	1	1	1	20	1	1
702.48177	10000	8.93492	5.99698	0.349436	0	1.26553	0	0	0	0.0421	1.5	327.284	0.01	0	1	0.75	0	0.75	200	0.1	4	0.00417	1	1	1	20	1	1
802.50948	10000	9.53206	6.0659	0.390266	0	0.317397	0	0	0	0.0421	1.5	320.57	0.01	0	1	0.75	0	0.75	200	0.1	4	0.00417	1	1	1	20	1	1
902.46083	10000	9.02291	6.19394	0.39225	0	1.25685	0	0	0	0.0421	1.5	320.832	0.01	0	1	0.75	0	0.75	200	0.1	4	0.00417	1	1	1	20	1	1
1002.39674	10000	9.47338	6.26992	0.392955	0	0.846037	0	0	0	0.0421	1.5	313.614	0.01	0	1	0.75	0	0.75	200	0.1	4	0.00417	1	1	1	20	1	1
