28	10
904.78492	10000	15.2016	6.97403	0.238234	0	2.80087	0	0	0	0.813051	5.03655	18.4355	0.01	0	1	0.75	0	0.75	200	0.1	4	0.00417	1	1	1	20	1	1
1005.00632	10000	14.0571	7.44611	0.213	0	1.02572	0	0	0	0.833979	5.29036	15.7357	0.01	0	1	0.75	0	0.75	200	0.1	4	0.00417	1	1	1	20	1	1
104.63604	10000	17.2845	7.46772	0.264732	0	4.12027	0	0	0	0.790763	5.3493	13.7135	0.01	0	1	0.75	0	0.75	200	0.1	4	0.00417	1	1	1	20	1	1
204.66134	10000	19.4958	7.73164	0.318893	0	0.328719	0	0	0	0.774416	4.39036	23.6597	0.01	0	1	0.75	0	0.75	200	0.1	4	0.00417	1	1	1	20	1	1
304.95715	10000	9.12273	7.18556	0.363685	0	0.943253	0	0	0	0.869277	4.89227	25.0703	0.01	0	1	0.75	0	0.75	200	0.1	4	0.00417	1	1	1	20	1	1
404.60509	10000	14.607	7.14655	0.271991	0	1.83175	0	0	0	0.800576	4.20138	31.0116	0.01	0	1	0.75	0	0.75	200	0.1	4	0.00417	1	1	1	20	1	1
505.02758	10000	17.646	7.02467	0.263871	0	1.20193	0	0	0	0.807558	4.85455	19.2373	0.01	0	1	0.75	0	0.75	200	0.1	4	0.00417	1	1	1	20	1	1
604.70264	10000	9.7378	7.73731	0.241087	0	3.33759	0	0	0	0.850266	4.45952	29.9776	0.01	0	1	0.75	0	0.75	200	0.1	4	0.00417	1	1	1	20	1	1
