28	10
908.01564	10000	14.3946	6.76215	0.292138	0	0.829072	0	0	0	0.837226	1.5	240.056	0.01	0	1	0.75	0	0.75	200	0.1	4	0.00417	1	1	1	20	1	1
1008.17062	10000	11.5448	6.77399	0.341992	0	1.52009	0	0	0	0.874341	1.5	270.318	0.01	0	1	0.75	0	0.75	200	0.1	4	0.00417	1	1	1	20	1	1
108.05931	10000	10.238	7.28844	0.52893	0	0.609966	0	0	0	0.895408	1.5	283.471	0.01	0	1	0.75	0	0.75	200	0.1	4	0.00417	1	1	1	20	1	1
207.88625	10000	15.3072	6.80754	0.38415	0	0.267472	0	0	0	0.851354	1.5	231.901	0.01	0	1	0.75	0	0.75	200	0.1	4	0.00417	1	1	1	20	1	1
308.15432	10000	13.3159	6.9376	0.427615	0	1.49737	0	0	0	0.867403	1.5	245.778	0.01	0	1	0.75	0	0.75	200	0.1	4	0.00417	1	1	1	20	1	1
407.98498	10000	12.7885	7.17234	0.329467	0	0.408564	0	0	0	0.877695	1.5	254.966	0.01	0	1	0.75	0	0.75	200	0.1	4	0.00417	1	1	1	20	1	1
508.18723	10000	18.111	7.55949	0.435321	0	1.26903	0	0	0	0.815578	1.5	198.659	0.01	0	1	0.75	0	0.75	200	0.1	4	0.00417	1	1	1	20	1	1
607.88414	10000	15.6486	6.50921	0.448512	0	0.63336	0	0	0	0.863912	1.5	229.308	0.01	0	1	0.75	0	0.75	200	0.1	4	0.00417	1	1	1	20	1	1
708.04521	10000	15.2791	7.11294	0.436562	0	1.59454	0	0	0	0.85193	1.5	224.009	0.01	0	1	0.75	0	0.75	200	0.1	4	0.00417	1	1	1	20	1	1
807.91475	10000	20.5279	6.95536	0.311266	0	0.349459	0	0	0	0.818746	1.5	189.882	0.01	0	1	0.75	0	0.75	200	0.1	4	0.00417	1	1	1	20	1	1
