4	11
time	prcEDUposBRDUneg	prcEDUposBRDUpos	prcEDUnegBRDUpos	prcEDUnegBRDUneg	percentG0	percentG0G1	percentS	percentG2M	percentM	PostInG1	MiddleInG1
2	0.53	0.80	0.32	0.72	2.62	2.11	1.11	0.02	1.89	nan	nan
3	0.26	1.27	0.21	1.25	2.62	2.11	1.11	0.02	1.89	nan	nan
5	0.19	2.36	0.31	2.81	2.62	2.11	1.11	0.02	1.89	nan	nan
7	0.21	1.47	0.39	1.96	2.62	2.11	1.11	0.02	1.89	0.00	3.28
