4	9
time	prcEDUposBRDUneg	prcEDUposBRDUpos	prcEDUnegBRDUpos	prcEDUnegBRDUneg	percentG0	percentG0G1	percentS	percentG2M	percentM
2	9.55	1.51	0.48	10.74	0.59	2.81	0.88	0.26	0.84
3	4.50	0.36	0.37	4.65	0.59	2.81	0.88	0.26	0.84
5	7.26	0.36	0.91	7.75	0.59	2.81	0.88	0.26	0.84
7	6.26	0.45	0.62	5.81	0.59	2.81	0.88	0.26	0.84
