4	15
time	prcEDUposBRDUneg	prcEDUposBRDUpos	prcEDUnegBRDUpos	prcEDUnegBRDUneg	PostInG1	MiddleInG1	percentG0	percentG0G1	percentS	percentG2M	percentM	AvgDNAMiddle	AvgDNAPre	UnstInS	PostInS
2	2.42	11.99	0.66	11.51	0.00	0.40	0.58	6.39	5.83	0.99	0.66	0.002	0.022	0.00	7.40
3	2.53	12.44	1.38	11.36	2.08	4.69	0.58	6.39	5.83	0.99	0.66	0.034	0.031	0.98	1.60
5	1.24	3.57	1.97	4.45	3.18	8.34	0.58	6.39	5.83	0.99	0.66	0.071	0.089	0.25	2.63
7	1.59	2.35	3.29	6.58	1.91	6.48	0.58	6.39	5.83	0.99	0.66	0.024	0.024	3.75	33.22
