4	15
time	prcEDUposBRDUneg	prcEDUposBRDUpos	prcEDUnegBRDUpos	prcEDUnegBRDUneg	PostInG1	MiddleInG1	percentG0	percentG0G1	percentS	percentG2M	percentM	AvgDNAMiddle	AvgDNAPre	UnstInS	PostInS
2	0.47	1.51	0.44	2.00	8.95	0.66	0.53	2.31	1.24	0.12	0.16	0.056	0.016	0.30	8.02
3	0.41	0.71	0.54	0.54	2.86	4.52	0.53	2.31	1.24	0.12	0.16	0.084	0.045	0.25	1.85
5	0.60	1.05	0.16	1.32	2.62	12.87	0.53	2.31	1.24	0.12	0.16	0.085	0.080	0.58	2.50
7	0.43	0.68	0.75	0.81	6.29	11.78	0.53	2.31	1.24	0.12	0.16	0.025	0.028	1.34	6.29
