4	11
time	prcEDUposBRDUneg	prcEDUposBRDUpos	prcEDUnegBRDUpos	prcEDUnegBRDUneg	percentG0	percentG0G1	percentS	percentG2M	percentM	PostInG1	MiddleInG1
2	1.62	8.61	1.34	10.19	0.85	8.98	8.61	1.70	0.84	13.33	0.59
3	2.87	6.48	2.65	10.45	0.85	8.98	8.61	1.70	0.84	8.42	5.34
5	3.92	9.95	3.08	10.54	0.85	8.98	8.61	1.70	0.84	22.72	10.15
7	3.92	6.28	4.26	8.19	0.85	8.98	8.61	1.70	0.84	14.95	4.92
