4	11
time	prcEDUposBRDUneg	prcEDUposBRDUpos	prcEDUnegBRDUpos	prcEDUnegBRDUneg	percentG0	percentG0G1	percentS	percentG2M	percentM	PostInG1	MiddleInG1
2	1.99	4.32	2.01	5.86	1.87	4.77	5.16	2.12	0.45	30.41	0.29
3	0.80	3.58	2.22	5.94	1.87	4.77	5.16	2.12	0.45	4.02	5.64
5	0.83	4.44	2.18	5.50	1.87	4.77	5.16	2.12	0.45	24.46	14.05
7	0.90	3.26	2.04	3.76	1.87	4.77	5.16	2.12	0.45	6.08	2.02
