4	7
time	prcEDUposBRDUpos	prcEDUnegBRDUpos	prcEDUposBRDUneg	percentG0G1	percentS	percentG2M	MiddleInG1
2	79.45	0.34	2.005	25.6375	61.7125	12.525	3.075
3	77.8	1.07	1.8775	25.6375	61.7125	12.525	3.7975
5	65.5	4.025	2.8825	25.6375	61.7125	12.525	15.3775
7	57.875	5.22	1.875	25.6375	61.7125	12.525	37.25
