4	7
time	prcEDUposBRDUpos	prcEDUnegBRDUpos	prcEDUposBRDUneg	percentG0G1	percentS	percentG2M	MiddleInG1
2	6.2	1.835	1.095	90.25714286	9.213571429	0.515785714	4.635
3	7.46	4.0775	1.2825	90.25714286	9.213571429	0.515785714	12.85
5	4.6525	2.4125	0.63	90.25714286	9.213571429	0.515785714	42.925
7	9.825	3.11	1.1475	90.25714286	9.213571429	0.515785714	62.825
