4	7
time	prcEDUposBRDUpos	prcEDUnegBRDUpos	prcEDUposBRDUneg	percentG0G1	percentS	percentG2M	MiddleInG1
2	50.2	7.5375	6.2825	46.425	48.78125	4.659375	2.1675
3	51.4	8.845	8.23	46.425	48.78125	4.659375	7.6375
5	39.125	10.54	8.8175	46.425	48.78125	4.659375	39.675
7	31.925	6.905	9.745	46.425	48.78125	4.659375	68.075
