28	50	5
10000	2000	20000	.	0	0	0	0	0
79.8744	1	30	.	1	1	1	1	1
6.83676	6	9	.	1	1	1	1	1
0.22248	0.2	5	.	1	1	1	1	1
0.119912	0.1	10	.	0	1	0	0	1
0	0.1	10	.	0	0	1	0	1
0	0.1	2.5	.	0	0	0	1	1
0	1	60	.	0	0	0	0	0
0	0.01	1	.	0	0	0	0	0
0.0267	0	0.98	.	0	0	0	0	0
1.5	2.1	2.9	.	1	1	1	1	1
62.5053	0.001	10	.	0	0	0	0	0
0.01	0.01	0.01	.	0	0	0	0	0
0	0.1	200	.	0	0	0	0	0
1	1	1	.	0	0	0	0	0
0.75	0.5	1	.	0	0	0	0	0
0	0	0	.	0	0	0	0	0
0.75	0.5	1	.	0	0	0	0	0
200	200	200	.	0	0	0	0	0
0.1	0.01	24	.	0	0	0	0	0
4	0	3	.	0	0	0	0	0
0.00185	0.0001	0.25	.	0	0	0	0	0
20	0.05	20	.	0	0	0	0	0
7	0.05	20	.	0	0	0	0	0
1	0.05	20	.	0	0	0	0	0
2	0.05	20	.	0	0	0	0	0
0	0.05	0.99	.	1	1	1	1	1
0	0.05	20	.	0	0	0	0	0
.	.	.	.	0	0	0	0	0
.	.	.	.	0	0	0	0	0
.	.	.	.	0	0	0	0	0
.	.	.	.	0	0	0	0	0
.	.	.	.	0	0	0	0	0
.	.	.	.	0	0	0	0	0
.	.	.	.	0	0	0	0	0
.	.	.	.	0	0	0	0	0
.	.	.	.	0	0	0	0	0
.	.	.	.	0	0	0	0	0
.	.	.	.	0	0	0	0	0
.	.	.	.	0	0	0	0	0
.	.	.	.	0	0	0	0	0
.	.	.	.	0	0	0	0	0
.	.	.	.	0	0	0	0	0
.	.	.	.	0	0	0	0	0
.	.	.	.	0	0	0	0	0
.	.	.	.	0	0	0	0	0
.	.	.	.	0	0	0	0	0
.	.	.	.	0	0	0	0	0
.	.	.	.	0	0	0	0	0
.	.	.	.	0	0	0	0	0
.	.	.	.	0	0	0	0	0
.	.	.	.	0	0	0	0	0
.	.	.	.	0	0	0	0	0
.	.	.	.	0	0	0	0	0
.	.	.	.	0	0	0	0	0
.	.	.	.	0	0	0	0	0
.	.	.	.	0	0	0	0	0
.	.	.	.	0	0	0	0	0
.	.	.	.	0	0	0	0	0
.	.	.	.	0	0	0	0	0
.	.	.	.	0	0	0	0	0
.	.	.	.	0	0	0	0	0
.	.	.	.	0	0	0	0	0
.	.	.	.	0	0	0	0	0
.	.	.	.	0	0	0	0	0
.	.	.	.	0	0	0	0	0
.	.	.	.	0	0	0	0	0
.	.	.	.	0	0	0	0	0
.	.	.	.	0	0	0	0	0
.	.	.	.	0	0	0	0	0
.	.	.	.	0	0	0	0	0
.	.	.	.	0	0	0	0	0
.	.	.	.	0	0	0	0	0
.	.	.	.	0	0	0	0	0
.	.	.	.	0	0	0	0	0
.	.	.	.	0	0	0	0	0
.	.	.	.	0	0	0	0	0
.	.	.	.	0	0	0	0	0
