4	13
time	prcEDUposBRDUneg	prcEDUposBRDUpos	prcEDUnegBRDUpos	prcEDUnegBRDUneg	PostInG1	MiddleInG1	percentG0G1	percentS	percentG2M	AvgDNAMiddle	AvgDNAPre	UnstInS	PostInS
2	1.15	11.71	2.73	84.40	87.83	1.44	90.76	7.76	1.06	0.55	0.02	0.23	7.69
3	1.95	5.97	2.14	89.92	96.78	10.02	90.76	7.76	1.06	0.60	0.16	0.68	3.08
5	1.70	3.98	1.73	92.60	97.37	43.08	90.76	7.76	1.06	0.80	0.46	2.15	2.65
7	1.58	6.53	2.61	89.28	96.84	75.96	90.76	7.76	1.06	0.93	0.73	4.20	3.15
