4	13
time	prcEDUposBRDUneg	prcEDUposBRDUpos	prcEDUnegBRDUpos	prcEDUnegBRDUneg	PostInG1	MiddleInG1	percentG0G1	percentS	percentG2M	AvgDNAMiddle	AvgDNAPre	UnstInS	PostInS
2	0.97	3.74	1.13	94.14	68.82	0.69	92.38	6.96	0.27	0.67	0.08	0.64	8.57
3	1.78	4.32	1.23	92.66	96.16	10.95	92.38	6.96	0.27	0.70	0.18	0.49	2.17
5	2.24	4.90	2.22	90.64	96.30	47.70	92.38	6.96	0.27	0.81	0.43	0.86	3.33
7	3.10	6.42	2.47	88.02	70.68	74.80	92.38	6.96	0.27	0.96	0.70	1.83	27.86
