28	10
901.52562	10000	15.437	7.72159	0.396587	9.8708	0	0	0	0	0.0187	1.5	200.456	0.01	0	1	0.75	0	0.75	200	0.1	4	0.00185	1	1	1	20	1	1
901.58361	10000	13.3889	7.68845	0.407587	0.873344	0	0	0	0	0.0187	1.5	233.041	0.01	0	1	0.75	0	0.75	200	0.1	4	0.00185	1	1	1	20	1	1
901.58737	10000	14.7473	7.43196	0.478401	2.57551	0	0	0	0	0.0187	1.5	215.228	0.01	0	1	0.75	0	0.75	200	0.1	4	0.00185	1	1	1	20	1	1
901.58828	10000	12.7354	7.43866	0.374508	0.586292	0	0	0	0	0.0187	1.5	244.74	0.01	0	1	0.75	0	0.75	200	0.1	4	0.00185	1	1	1	20	1	1
901.56605	10000	13.9757	7.46387	0.388707	5.02822	0	0	0	0	0.0187	1.5	217.409	0.01	0	1	0.75	0	0.75	200	0.1	4	0.00185	1	1	1	20	1	1
901.60947	10000	13.2433	7.77806	0.370811	0.215474	0	0	0	0	0.0187	1.5	237.292	0.01	0	1	0.75	0	0.75	200	0.1	4	0.00185	1	1	1	20	1	1
901.60325	10000	14.1024	7.36143	0.383272	3.56396	0	0	0	0	0.0187	1.5	219.979	0.01	0	1	0.75	0	0.75	200	0.1	4	0.00185	1	1	1	20	1	1
901.53001	10000	14.5049	7.79243	0.406896	4.98141	0	0	0	0	0.0187	1.5	209.563	0.01	0	1	0.75	0	0.75	200	0.1	4	0.00185	1	1	1	20	1	1
901.61501	10000	13.8086	7.19886	0.393126	3.64221	0	0	0	0	0.0187	1.5	224.094	0.01	0	1	0.75	0	0.75	200	0.1	4	0.00185	1	1	1	20	1	1
901.62544	10000	12.5908	7.39031	0.392231	0.266397	0	0	0	0	0.0187	1.5	248.565	0.01	0	1	0.75	0	0.75	200	0.1	4	0.00185	1	1	1	20	1	1
