28	10
1169.1132	10000	23.9085	2.73869	0.201112	0.194885	0	0	0	0	0.0414	1.5	190.306	0.01	0	1	0.75	0	0.75	200	0.1	4	0.00185	1	1	1	20	1	1
1168.8948	10000	23.3349	2.97373	0.206137	0.258463	0	0	0	0	0.0414	1.5	192.409	0.01	0	1	0.75	0	0.75	200	0.1	4	0.00185	1	1	1	20	1	1
1175.3031	10000	22.6818	2.9728	0.202603	1.33986	0	0	0	0	0.0414	1.5	193.45	0.01	0	1	0.75	0	0.75	200	0.1	4	0.00185	1	1	1	20	1	1
1175.9738	10000	23.3874	2.59581	0.20634	1.08056	0	0	0	0	0.0414	1.5	191.936	0.01	0	1	0.75	0	0.75	200	0.1	4	0.00185	1	1	1	20	1	1
1165.689	10000	23.7585	2.97661	0.204586	0.988285	0	0	0	0	0.0414	1.5	187.109	0.01	0	1	0.75	0	0.75	200	0.1	4	0.00185	1	1	1	20	1	1
1170.8075	10000	23.8022	3.32701	0.205693	0.102552	0	0	0	0	0.0414	1.5	187.32	0.01	0	1	0.75	0	0.75	200	0.1	4	0.00185	1	1	1	20	1	1
1178.0224	10000	23.6446	3.18474	0.209181	1.12696	0	0	0	0	0.0414	1.5	186.031	0.01	0	1	0.75	0	0.75	200	0.1	4	0.00185	1	1	1	20	1	1
1171.1019	10000	23.5851	3.37935	0.20486	0.112289	0	0	0	0	0.0414	1.5	188.397	0.01	0	1	0.75	0	0.75	200	0.1	4	0.00185	1	1	1	20	1	1
1170.1416	10000	23.1694	2.27215	0.202503	0.182551	0	0	0	0	0.0414	1.5	199.028	0.01	0	1	0.75	0	0.75	200	0.1	4	0.00185	1	1	1	20	1	1
1171.0115	10000	23.3047	2.86891	0.206173	0.540607	0	0	0	0	0.0414	1.5	192.392	0.01	0	1	0.75	0	0.75	200	0.1	4	0.00185	1	1	1	20	1	1
