28	10
21601.26477	10000	5.05311	5.20589	0.271454	1.85831	0	0	0	0	0.0313	1.5	459.332	0.01	0	1	0.75	0	0.75	200	0.1	4	0.00417	1	1	1	20	1	1
21601.19236	10000	6.64375	5.32444	0.280566	6.148	0	0	0	0	0.0313	1.5	400.404	0.01	0	1	0.75	0	0.75	200	0.1	4	0.00417	1	1	1	20	1	1
21601.2957	10000	4.76688	4.91021	0.279767	1.71082	0	0	0	0	0.0313	1.5	485.511	0.01	0	1	0.75	0	0.75	200	0.1	4	0.00417	1	1	1	20	1	1
21601.23031	10000	5.60851	4.76025	0.276296	4.09703	0	0	0	0	0.0313	1.5	452.492	0.01	0	1	0.75	0	0.75	200	0.1	4	0.00417	1	1	1	20	1	1
21601.26406	10000	6.15651	5.23544	0.283806	3.28195	0	0	0	0	0.0313	1.5	410.848	0.01	0	1	0.75	0	0.75	200	0.1	4	0.00417	1	1	1	20	1	1
21601.18773	10000	5.50667	5.16383	0.343064	3.06306	0	0	0	0	0.0313	1.5	436.378	0.01	0	1	0.75	0	0.75	200	0.1	4	0.00417	1	1	1	20	1	1
21601.21381	10000	5.61606	5.23559	0.326408	3.34276	0	0	0	0	0.0313	1.5	430.236	0.01	0	1	0.75	0	0.75	200	0.1	4	0.00417	1	1	1	20	1	1
21601.2213	10000	5.61359	5.26401	0.299533	3.33128	0	0	0	0	0.0313	1.5	430.264	0.01	0	1	0.75	0	0.75	200	0.1	4	0.00417	1	1	1	20	1	1
21601.32561	10000	4.49829	5.18366	0.30046	0.101301	0	0	0	0	0.0313	1.5	509.043	0.01	0	1	0.75	0	0.75	200	0.1	4	0.00417	1	1	1	20	1	1
21601.24649	10000	5.43064	5.14617	0.263306	3.03489	0	0	0	0	0.0313	1.5	443.141	0.01	0	1	0.75	0	0.75	200	0.1	4	0.00417	1	1	1	20	1	1
