28	50	5
5000	2000	20000	.	0	0	0	0	0
5	1	24	.	1	1	1	1	1
5	1	20	.	1	1	1	1	1
2	0.2	5	.	1	1	1	1	1
0	0.1	10	.	1	1	1	1	1
0	0.1	10	.	0	0	0	0	0
0	0.1	2.5	.	0	0	0	0	0
0	1	60	.	0	0	0	0	0
0	0.01	1	.	0	0	0	0	0
0.03	0.03	0.05	.	1	1	1	1	1
2	1.1	6	.	0	0	0	0	0
143.718	0.001	10	.	0	0	0	0	0
0.01	0.01	0.01	.	0	0	0	0	0
0	0.1	200	.	0	0	0	0	0
1	1	1	.	0	0	0	0	0
0.75	0.5	1	.	0	0	0	0	0
0	0	0	.	0	0	0	0	0
0.75	0.5	1	.	0	0	0	0	0
200	200	200	.	0	0	0	0	0
0.1	0.01	24	.	0	0	0	0	0
4	0	3	.	0	0	0	0	0
0.0042	0.0001	0.1	.	0	0	0	1	1
1	0.05	20	.	1	0	0	1	0
1	0.05	20	.	0	0	1	0	1
1	0.05	20	.	0	0	0	0	0
20	0.05	20	.	0	0	0	0	0
1	0.05	20	.	0	0	0	0	0
1	0.05	20	.	0	0	0	0	0
.	.	.	.	0	0	0	0	0
.	.	.	.	0	0	0	0	0
.	.	.	.	0	0	0	0	0
.	.	.	.	0	0	0	0	0
.	.	.	.	0	0	0	0	0
.	.	.	.	0	0	0	0	0
.	.	.	.	0	0	0	0	0
.	.	.	.	0	0	0	0	0
.	.	.	.	0	0	0	0	0
.	.	.	.	0	0	0	0	0
.	.	.	.	0	0	0	0	0
.	.	.	.	0	0	0	0	0
.	.	.	.	0	0	0	0	0
.	.	.	.	0	0	0	0	0
.	.	.	.	0	0	0	0	0
.	.	.	.	0	0	0	0	0
.	.	.	.	0	0	0	0	0
.	.	.	.	0	0	0	0	0
.	.	.	.	0	0	0	0	0
.	.	.	.	0	0	0	0	0
.	.	.	.	0	0	0	0	0
.	.	.	.	0	0	0	0	0
.	.	.	.	0	0	0	0	0
.	.	.	.	0	0	0	0	0
.	.	.	.	0	0	0	0	0
.	.	.	.	0	0	0	0	0
.	.	.	.	0	0	0	0	0
.	.	.	.	0	0	0	0	0
.	.	.	.	0	0	0	0	0
.	.	.	.	0	0	0	0	0
.	.	.	.	0	0	0	0	0
.	.	.	.	0	0	0	0	0
.	.	.	.	0	0	0	0	0
.	.	.	.	0	0	0	0	0
.	.	.	.	0	0	0	0	0
.	.	.	.	0	0	0	0	0
.	.	.	.	0	0	0	0	0
.	.	.	.	0	0	0	0	0
.	.	.	.	0	0	0	0	0
.	.	.	.	0	0	0	0	0
.	.	.	.	0	0	0	0	0
.	.	.	.	0	0	0	0	0
.	.	.	.	0	0	0	0	0
.	.	.	.	0	0	0	0	0
.	.	.	.	0	0	0	0	0
.	.	.	.	0	0	0	0	0
.	.	.	.	0	0	0	0	0
.	.	.	.	0	0	0	0	0
.	.	.	.	0	0	0	0	0
.	.	.	.	0	0	0	0	0
