28	50	1
10000	2000	20000	.	0
13.3	1	30	.	0
7.2	6	9	.	0
0.388	0.2	5	.	0
0.2	0.1	10	.	0
0	0.1	10	.	0
0	0.1	2.5	.	0
0	1	60	.	0
0	0.01	1	.	0
0.0267	0	0.98	.	0
2.53272	2.1	2.9	.	1
97.4221	0.001	10	.	0
0.01	0.01	0.01	.	0
0	0.1	200	.	0
1	1	1	.	0
0.75	0.5	1	.	0
0	0	0	.	0
0.75	0.5	1	.	0
200	200	200	.	0
0.1	0.01	24	.	0
4	0	3	.	0
0.00185	0.0001	0.02	.	0
6	0.05	30	.	1
6.5	6	9	.	1
0.33	0.05	5	.	1
2	0.05	20	.	0
0	0.05	20	.	0
0	0.05	20	.	0
.	.	.	.	0
.	.	.	.	0
.	.	.	.	0
.	.	.	.	0
.	.	.	.	0
.	.	.	.	0
.	.	.	.	0
.	.	.	.	0
.	.	.	.	0
.	.	.	.	0
.	.	.	.	0
.	.	.	.	0
.	.	.	.	0
.	.	.	.	0
.	.	.	.	0
.	.	.	.	0
.	.	.	.	0
.	.	.	.	0
.	.	.	.	0
.	.	.	.	0
.	.	.	.	0
.	.	.	.	0
.	.	.	.	0
.	.	.	.	0
.	.	.	.	0
.	.	.	.	0
.	.	.	.	0
.	.	.	.	0
.	.	.	.	0
.	.	.	.	0
.	.	.	.	0
.	.	.	.	0
.	.	.	.	0
.	.	.	.	0
.	.	.	.	0
.	.	.	.	0
.	.	.	.	0
.	.	.	.	0
.	.	.	.	0
.	.	.	.	0
.	.	.	.	0
.	.	.	.	0
.	.	.	.	0
.	.	.	.	0
.	.	.	.	0
.	.	.	.	0
.	.	.	.	0
.	.	.	.	0
.	.	.	.	0
.	.	.	.	0
