28	50	5
10000	2000	20000	.	0	0	0	0	0
20.4006	1	30	.	1	1	1	1	1
6.18702	6	9	.	1	1	1	1	1
0.254516	0.2	5	.	1	1	1	1	1
1.70435	0.1	10	.	0	1	0	0	1
0	0.1	10	.	0	0	1	0	1
0	0.1	2.5	.	0	0	0	1	1
0	1	60	.	0	0	0	0	0
0	0.01	1	.	0	0	0	0	0
0.0414	0	0.98	.	0	0	0	0	0
1.10198	2.1	2.9	.	1	1	1	1	1
303.164	0.001	10	.	0	0	0	0	0
0.01	0.01	0.01	.	0	0	0	0	0
0	0.1	200	.	0	0	0	0	0
1	1	1	.	0	0	0	0	0
0.75	0.5	1	.	0	0	0	0	0
0	0	0	.	0	0	0	0	0
0.75	0.5	1	.	0	0	0	0	0
200	200	200	.	0	0	0	0	0
0.1	0.01	24	.	0	0	0	0	0
4	0	3	.	0	0	0	0	0
0.00185	0.0001	0.02	.	0	0	0	0	0
6	0.05	20	.	0	0	0	0	0
6.5	0.05	20	.	0	0	0	0	0
0.33	0.05	20	.	0	0	0	0	0
2	0.05	20	.	0	0	0	0	0
0	0.05	20	.	0	0	0	0	0
0	0.05	20	.	0	0	0	0	0
.	.	.	.	0	0	0	0	0
.	.	.	.	0	0	0	0	0
.	.	.	.	0	0	0	0	0
.	.	.	.	0	0	0	0	0
.	.	.	.	0	0	0	0	0
.	.	.	.	0	0	0	0	0
.	.	.	.	0	0	0	0	0
.	.	.	.	0	0	0	0	0
.	.	.	.	0	0	0	0	0
.	.	.	.	0	0	0	0	0
.	.	.	.	0	0	0	0	0
.	.	.	.	0	0	0	0	0
.	.	.	.	0	0	0	0	0
.	.	.	.	0	0	0	0	0
.	.	.	.	0	0	0	0	0
.	.	.	.	0	0	0	0	0
.	.	.	.	0	0	0	0	0
.	.	.	.	0	0	0	0	0
.	.	.	.	0	0	0	0	0
.	.	.	.	0	0	0	0	0
.	.	.	.	0	0	0	0	0
.	.	.	.	0	0	0	0	0
.	.	.	.	0	0	0	0	0
.	.	.	.	0	0	0	0	0
.	.	.	.	0	0	0	0	0
.	.	.	.	0	0	0	0	0
.	.	.	.	0	0	0	0	0
.	.	.	.	0	0	0	0	0
.	.	.	.	0	0	0	0	0
.	.	.	.	0	0	0	0	0
.	.	.	.	0	0	0	0	0
.	.	.	.	0	0	0	0	0
.	.	.	.	0	0	0	0	0
.	.	.	.	0	0	0	0	0
.	.	.	.	0	0	0	0	0
.	.	.	.	0	0	0	0	0
.	.	.	.	0	0	0	0	0
.	.	.	.	0	0	0	0	0
.	.	.	.	0	0	0	0	0
.	.	.	.	0	0	0	0	0
.	.	.	.	0	0	0	0	0
.	.	.	.	0	0	0	0	0
.	.	.	.	0	0	0	0	0
.	.	.	.	0	0	0	0	0
.	.	.	.	0	0	0	0	0
.	.	.	.	0	0	0	0	0
.	.	.	.	0	0	0	0	0
.	.	.	.	0	0	0	0	0
.	.	.	.	0	0	0	0	0
.	.	.	.	0	0	0	0	0
