11	21
time	TBETmRNA	GATA3mRNA	FOXP3mRNA	RORGTmRNA	IFNGmRNA	IL4mRNA	IL21mRNA	IL2mRNA	TGFBmRNA	IL17mRNA	IL10mRNA	IL21	IL17	IL10	IL4	IL2	IFNG	TBET	GATA3	FOXP3	RORGT
0	0.188263259	85.53939451	2.242879407	0.48115419	2.312243772	0.036007582	0.435486627	0.96438455	429.0750945	0.064396301	0.056885523	0	0	0	0	0	0	300.75125	452.9169665	0.0732	26.4
10800	15.53448543	40.22420307	1.905025301	5.956169409	9.956397092	0.955659545	2.819917921	515.9337434	3511.976166	0.468049156	0.503209178	0	0	0	0	0.005385045	0	54.38	261.8708556	0.06825	47.85
21600	9.119319923	48.1234663	2.487800108	11.75196767	7.894007659	0.556983899	1.749813645	1229.613372	2281.862044	0.310222102	0.509095455	0	0	0	0	0.247474879	0	86.9075	267.0200017	0.089435	38.41333333
32400	2.70786829	33.88206824	1.581091735	13.48231391	6.119616465	0.1946288	0.907573644	1232.094166	926.7299343	0.13994515	0.216481565	0	0	0	0	0.51035106	0	64.3825	261.4550861	0.11075	93.26666667
43200	1.984217289	28.03000623	1.141530039	12.28017556	5.292958653	0.141860905	0.455569301	1865.598332	584.0315973	0.158090492	0.139577016	0	0	0	0	0.92513282	0	56.8525	315.1853056	0.11875	114.5066667
64800	5.029013255	27.89622878	0.997984069	8.897792994	4.142172514	0.133100744	0.309268888	1333.025951	502.8820119	0.124083002	0.086909099	0	0	0	0	1.908417218	0	182.98	343.5855645	0.241	252
86400	24.57834256	35.91483523	1.290484295	8.857431345	10.23296072	0.340909282	0.259617272	3725.849927	923.5332305	0.402300027	0.077459957	0	0	0	0	5.501931369	0	971.505	584.6999246	0.42075	356.1333333
129600	28.80545633	38.89763858	0.810172451	7.723264555	12.86144427	0.576089851	0.242802775	2703.075038	859.8385403	0.153230135	0.044683673	0	0	0	0	27.33874151	0	2893.115	1089.763988	0.69325	526.8666667
172800	47.35600766	53.49584993	0.936984077	3.193648945	10.21668405	1.274266702	0.162499716	569.263093	816.9841995	0.345397935	0.119276115	0	0	0	0	34.85978809	0.059163906	4262.3	1955.108363	0.551	382.2
216000	50.66776532	90.0092748	1.184510644	1.072757567	9.275451813	1.542751092	0.174205362	273.7491947	1322.983717	0.037151839	0.196820301	0	0	0.005583215	0	43.0504334	0.236243008	4949.58	2359.620158	0.77	472.9333333
259200	30.33920418	110.8454999	2.555087239	0.703590326	12.47347781	1.415970159	0.211487322	109.8239868	1160.780635	0.020997811	0.13647081	0	0	0.011256101	0	46.75936676	0.281912119	4302.955	2596.608805	1.188	583.8666667
