4	3		
Th0-Dens10	gRORGT	gGATA3	gFOXP3
86400	0.723805721	0.624317945	0.035463259
129600	1.567413767	0.713143669	0.054313099
172800	2.855288774	0.878105728	0.077635783
259200	2.528328258	0.611628556	0
