4	3		
TH17-Untouched-J6	gGATA3	gFOXP3	gRORGT
72000	0.459355887	0.18370607	2.837817601
129600	0.357840774	0.011821086	9.866220736
172800	0.225871127	0.014696486	10.46523237
259200	0.150496155	0.829073482	6.204762142
