4	3		
Th17-Dens1800	gRORGT	gGATA3	gFOXP3
86400	4.739679529	0.436514986	0.025239617
129600	8.780512155	0.294393828	0.007348243
172800	5.293765287	0.193893866	0.066613419
259200	3.891079718	0.197446895	0.389776358
