4	3		
TH1-to-TH0-J6	gGATA3	gFOXP3	gRORGT
72000	0.690302769	0.038178914	0.396845205
129600	0.75882547	0.057507987	1.045774472
172800	0.903484506	0.053035144	1.078220935
259200	0.81719666	0.053833866	0.561573404
