4	3		
TH2-to-TREG-J6	gGATA3	gFOXP3	gRORGT
72000	2.667309596	0.019329073	0.336944042
129600	3.030226125	0.634185304	3.187241052
172800	5.311778291	2.523961661	3.132331653
259200	5.613785752	8.402555911	1.252932661
