4	3		
Treg-Dens700	gRORGT	gGATA3	gFOXP3
86400	0.9733939	0.87556785	0.555910543
129600	1.679728448	1.411060072	1.207667732
172800	1.227973843	2.426211202	2.236421725
259200	0.496680477	2.844961044	7.555910543
