4	3		
Treg-Dens1000	gRORGT	gGATA3	gFOXP3
86400	0.808665702	0.961855696	0.785942492
129600	1.350272051	1.51765094	1.547923323
172800	0.940947437	2.52265056	2.85942492
259200	0.454250487	2.672385351	8.450479233
