4	6
time	prcEDUposBRDUneg	prcEDUposBRDUpos	prcEDUnegBRDUpos	prcEDUnegBRDUneg	PostInG1	MiddleInG1
2	0.22	2.78	0.31	2.69	nan	nan
3	0.37	1.72	0.24	1.58	nan	nan
5	0.33	4.21	0.30	4.19	nan	nan
7	0.16	1.95	0.76	1.53	2.95	1.68
