4	8
time	prcEDUposBRDUneg	prcEDUposBRDUpos	prcEDUnegBRDUpos	prcEDUnegBRDUneg	PostInG1	MiddleInG1	UnstInS	PostInS
2	2.42	11.99	0.66	11.51	nan	0.40	nan	7.40
3	2.53	12.44	1.38	11.36	2.08	4.69	0.98	1.60
5	1.24	3.57	1.97	4.45	3.18	8.34	0.25	2.63
7	1.59	2.35	3.29	6.58	1.91	6.48	3.75	33.22
