4	8
time	prcEDUposBRDUneg	prcEDUposBRDUpos	prcEDUnegBRDUpos	prcEDUnegBRDUneg	PostInG1	MiddleInG1	UnstInS	PostInS
2	1.26	8.70	1.09	9.70	6.54	0.60	0.24	1.43
3	1.28	5.33	0.89	4.64	5.48	3.90	1.92	0.00
5	0.77	8.59	1.69	9.36	0.00	11.09	3.44	0.00
7	0.56	4.49	3.57	7.51	0.00	11.11	0.14	0.00
