4	8
time	prcEDUposBRDUneg	prcEDUposBRDUpos	prcEDUnegBRDUpos	prcEDUnegBRDUneg	PostInG1	MiddleInG1	UnstInS	PostInS
2	3.71	41.57	4.07	50.67	84.60	0.40	0.00	6.05
3	6.14	30.96	5.01	57.90	98.80	10.77	1.55	0.71
5	4.25	26.48	3.59	65.65	97.75	35.10	8.72	1.52
7	4.60	26.38	5.80	63.22	98.23	71.90	16.97	23.77
