4	8
time	prcEDUposBRDUneg	prcEDUposBRDUpos	prcEDUnegBRDUpos	prcEDUnegBRDUneg	PostInG1	MiddleInG1	UnstInS	PostInS
2	1.99	4.32	2.01	5.86	30.41	0.29	0.29	5.42
3	0.80	3.58	2.22	5.94	4.02	5.64	3.84	4.47
5	0.83	4.44	2.18	5.50	24.46	14.05	7.69	25.24
7	0.90	3.26	2.04	3.76	6.08	2.02	15.26	6.60
