19	7	1
620.68	10	100000	.	0
127.343	10	100000	.	0
135.433	1	50000	.	0
0.0036	1e-09	0.01	.	0
1.2	0.001	100000	.	0
0.9	0.0001	100000	.	0
0.0009	1e-09	0.01	.	0
0.0004	1e-07	0.1	.	1
0.001	1e-08	0.1	.	1
0.1081	1e-08	0.01	.	0
0.062	1e-08	100	.	0
0.001	1e-06	1000	.	0
0.002	1e-06	10000	.	0
0.003	1e-06	10000	.	0
0.005	1e-07	1000	.	1
213000	100000	1e+07	.	1
716.313	0.0001	20000	.	0
10	1e-07	1000	.	0
30000	1000	1e+07	.	0
.	.	.	.	0
.	.	.	.	0
.	.	.	.	0
.	.	.	.	0
.	.	.	.	0
.	.	.	.	0
.	.	.	.	0
