19	7	2
541.734	270	820	.	1	0
2229.33	1100	3500	.	1	0
11.4598	5	20	.	1	0
1.09353e-07	5e-08	2e-07	.	1	0
550.102	270	830	.	1	0
4583.53	2200	6900	.	1	0
3.74718e-09	1e-09	5e-09	.	1	0
0.000258514	0.0001	0.0003	.	0	1
0.000548105	0.0002	0.0008	.	0	1
1.39453e-06	5e-07	1e-05	.	1	0
5.68962e-08	2e-08	8e-08	.	1	0
2.51209e-06	1e-06	3e-06	.	1	0
1.59642	0.7	2.5	.	1	0
1.46009	0.7	2.5	.	1	0
0.000417807	0.0001	0.0007	.	0	1
144978	70000	220000	.	0	1
0.14273	0.05	0.3	.	1	0
10	1e-07	1000	.	0	0
30000	1000	1e+07	.	0	0
.	.	.	.	0	0
.	.	.	.	0	0
.	.	.	.	0	0
.	.	.	.	0	0
.	.	.	.	0	0
.	.	.	.	1	0
.	.	.	.	0	0
