31	5
Dpi-6	P	Mac	Ma	Mi	Mia
0	15000	8000	0	0	0
3.5	24460	15488	164	650	200
7	33920	22976	327	1107	399
10.5	56000	51488	7663.5	7053.5	2349.5
14	80000	80000	15000	13000	4300
17.5	137600	196027.511342458	20086	16073.5	5984.5
21	195200	312055.022684917	25172	19147	7669
24.5	375000	266027.511342458	21586	22573.5	8634.5
28	600000	220000	18000	26000	9600
31.5	820000	170078	15874.5	29861.5	10728
35	1025644	120156	13749	33723	11856
38.5	900000	130078	24874.5	26361.5	9178
42	500000	140000	36000	19000	6500
45.5	215000	144643.490469404	39139.5	11222.5	4796
49	54857	149286.980938808	42279	3445	3092
52.5	47428.5	137143.490469404	39139.5	3222.5	2926
56	40000	125000	36000	3000	2760
59.5	32500	111250	32000	2826	2380
63	25000	97500	28000	2652	2000
66.5	17500	83750	20000	2076	1475
70	10000	70000	12000	1500	950
73.5	6030	47612	7311	1152.5	822
77	2060	25224	2622	805	694
80.5	2030	24412	2561	777.5	642
84	2000	23600	2500	750	590
87.5	1900	22300	2300	665	475
91	1800	21000	2100	580	360
94.5	1715	20500	2025	356.5	305
98	1630	20000	1950	133	250
101.5	1540	19848.5	1899.5	108	187
105	1450	19697	1849	83	124
