7	5
Dpi-6	P	Mac	Ma	Mi	Mia
0	15000.0000	8000.0000	0	0	0
7	33920.0000	22976.590	327.8600	1107.900	399.19
21	195200.000	312055.02	25172.41	19147.88	7669.71
35	1025644.44	120156.71	13749.34	33723.04	11856.04
49	54857.1400	149286.98	42279.37	3445.620	3092.45
77	2060.00000	25224.200	2622.050	805.7800	694.72
105	1450.00000	19697.020	1849.840	91.36899	124.64
