7	5				
Dpi-6	P	Mac	Ma	Mi	Mia
0	nan	nan	0	0	0
7	6179.4053520586	4578.64434187454	78.3212247880216	191.59304596113	62.3671878345259
21	52993.0477620519	42833.8433024833	2503.88036111639	2569.55380473101	768.9937949705
35	260571.499910594	18317.5636180782	1900.95067849089	6608.48770918523	2124.07039405154
49	22444.8530530148	14178.3682437073	6107.45227257854	637.091116461617	553.997553557462
77	801.220265683173	3159.06720955688	308.808450333447	205.83597993239	185.174243877862
105	704.627953177413	2186.08238418874	345.236769307983	12.7094252075674	15.3402200407613
