32	54	10
5000	10	100000	.	0	0	0	0	0	0	0	0	0	0
8.9	6	10	.	1	1	1	1	1	1	1	1	1	1
6.2	4.5	7.5	.	1	1	1	1	1	1	1	1	1	1
0.75	0.3	0.9	.	1	1	1	1	1	1	1	1	1	1
8.9	5	10	.	0	1	0	0	1	0	1	0	0	1
0	0.1	10	.	0	0	1	0	1	0	0	1	0	1
0	0.1	5	.	0	0	0	1	1	0	0	0	1	1
2.5	1.1	8	.	0	0	0	0	0	0	0	0	0	0
0.01	0.01	0.1	.	0	0	0	0	0	0	0	0	0	0
10.2	1	25	.	0	0	0	0	0	0	0	0	0	0
7.5	1	10	.	0	0	0	0	0	0	0	0	0	0
0.61	0.1	5	.	0	0	0	0	0	0	0	0	0	0
3.8	0.1	10	.	0	0	0	0	0	0	0	0	0	0
0	0.1	10	.	0	0	0	0	0	0	0	0	0	0
0	0.1	5	.	0	0	0	0	0	0	0	0	0	0
2.5	1.1	8	.	0	0	0	0	0	0	0	0	0	0
0.01	0.01	0.1	.	0	0	0	0	0	0	0	0	0	0
0	0.01	0.98	.	0	0	0	0	0	1	1	1	1	1
4	4	4	.	0	0	0	0	0	0	0	0	0	0
1	0	1	.	0	0	0	0	0	0	0	0	0	0
1	0	1	.	0	0	0	0	0	0	0	0	0	0
0.01	0.01	0.01	.	0	0	0	0	0	0	0	0	0	0
1	1	1	.	0	0	0	0	0	0	0	0	0	0
0.75	0.1	1	.	0	0	0	0	0	0	0	0	0	0
0	0	0	.	0	0	0	0	0	0	0	0	0	0
0.75	0.1	1	.	0	0	0	0	0	0	0	0	0	0
25	0	0	.	0	0	0	0	0	0	0	0	0	0
26	1	1	.	0	0	0	0	0	0	0	0	0	0
0.1	0.01	10	.	0	0	0	0	0	0	0	0	0	0
19.6833	0.01	10	.	0	0	0	0	0	0	0	0	0	0
3	0	1	.	0	0	0	0	0	0	0	0	0	0
1	0	1	.	0	0	0	0	0	0	0	0	0	0
.	.	.	.	0	0	0	0	0	0	0	0	0	0
.	.	.	.	0	0	0	0	0	0	0	0	0	0
.	.	.	.	0	0	0	0	0	0	0	0	0	0
.	.	.	.	0	0	0	0	0	0	0	0	0	0
.	.	.	.	0	0	0	0	0	0	0	0	0	0
.	.	.	.	0	0	0	0	0	0	0	0	0	0
.	.	.	.	0	0	0	0	0	0	0	0	0	0
.	.	.	.	0	0	0	0	0	0	0	0	0	0
.	.	.	.	0	0	0	0	0	0	0	0	0	0
.	.	.	.	0	0	0	0	0	0	0	0	0	0
.	.	.	.	0	0	0	0	0	0	0	0	0	0
.	.	.	.	0	0	0	0	0	0	0	0	0	0
.	.	.	.	0	0	0	0	0	0	0	0	0	0
.	.	.	.	0	0	0	0	0	0	0	0	0	0
.	.	.	.	0	0	0	0	0	0	0	0	0	0
.	.	.	.	0	0	0	0	0	0	0	0	0	0
.	.	.	.	0	0	0	0	0	0	0	0	0	0
.	.	.	.	0	0	0	0	0	0	0	0	0	0
.	.	.	.	0	0	0	0	0	0	0	0	0	0
.	.	.	.	0	0	0	0	0	0	0	0	0	0
.	.	.	.	0	0	0	0	0	0	0	0	0	0
.	.	.	.	0	0	0	0	0	0	0	0	0	0
.	.	.	.	0	0	0	0	0	0	0	0	0	0
.	.	.	.	0	0	0	0	0	0	0	0	0	0
.	.	.	.	0	0	0	0	0	0	0	0	0	0
.	.	.	.	0	0	0	0	0	0	0	0	0	0
.	.	.	.	0	0	0	0	0	0	0	0	0	0
.	.	.	.	0	0	0	0	0	0	0	0	0	0
.	.	.	.	0	0	0	0	0	0	0	0	0	0
.	.	.	.	0	0	0	0	0	0	0	0	0	0
.	.	.	.	0	0	0	0	0	0	0	0	0	0
.	.	.	.	0	0	0	0	0	0	0	0	0	0
.	.	.	.	0	0	0	0	0	0	0	0	0	0
.	.	.	.	0	0	0	0	0	0	0	0	0	0
.	.	.	.	0	0	0	0	0	0	0	0	0	0
.	.	.	.	0	0	0	0	0	0	0	0	0	0
.	.	.	.	0	0	0	0	0	0	0	0	0	0
.	.	.	.	0	0	0	0	0	0	0	0	0	0
.	.	.	.	0	0	0	0	0	0	0	0	0	0
.	.	.	.	0	0	0	0	0	0	0	0	0	0
.	.	.	.	0	0	0	0	0	0	0	0	0	0
.	.	.	.	0	0	0	0	0	0	0	0	0	0
.	.	.	.	0	0	0	0	0	0	0	0	0	0
.	.	.	.	0	0	0	0	0	0	0	0	0	0
.	.	.	.	0	0	0	0	0	0	0	0	0	0
.	.	.	.	0	0	0	0	0	0	0	0	0	0
.	.	.	.	0	0	0	0	0	0	0	0	0	0
.	.	.	.	0	0	0	0	0	0	0	0	0	0
.	.	.	.	0	0	0	0	0	0	0	0	0	0
.	.	.	.	0	0	0	0	0	0	0	0	0	0
.	.	.	.	0	0	0	0	0	0	0	0	0	0
.	.	.	.	0	0	0	0	0	0	0	0	0	0
.	.	.	.	0	0	0	0	0	0	0	0	0	0
.	.	.	.	0	0	0	0	0	0	0	0	0	0
