32	54	0
1000	10	100000	.
10	1	25	.
7	1	10	.
2	0.1	5	.
1	0.1	10	.
0	0.1	10	.
0	0.1	5	.
2	1.1	8	.
0.01	0.01	0.1	.
22	1	25	.
5	1	10	.
0.6	0.1	5	.
2	0.1	10	.
0	0.1	10	.
0	0.1	5	.
5	1.1	8	.
0.01	0.01	0.1	.
0.05	0.01	0.99	.
4	4	4	.
1	0	1	.
1	0	1	.
0.01	0.01	0.01	.
1	1	1	.
0.75	0.1	1	.
0	0	0	.
0.75	0.1	1	.
0	0	0	.
26	1	1	.
0.1	0.01	10	.
19.6833	0.01	10	.
3	0	1	.
1	0	1	.
.	.	.	.
.	.	.	.
.	.	.	.
.	.	.	.
.	.	.	.
.	.	.	.
.	.	.	.
.	.	.	.
.	.	.	.
.	.	.	.
.	.	.	.
.	.	.	.
.	.	.	.
.	.	.	.
.	.	.	.
.	.	.	.
.	.	.	.
.	.	.	.
.	.	.	.
.	.	.	.
.	.	.	.
.	.	.	.
.	.	.	.
.	.	.	.
.	.	.	.
.	.	.	.
.	.	.	.
.	.	.	.
.	.	.	.
.	.	.	.
.	.	.	.
.	.	.	.
.	.	.	.
.	.	.	.
.	.	.	.
.	.	.	.
.	.	.	.
.	.	.	.
.	.	.	.
.	.	.	.
.	.	.	.
.	.	.	.
.	.	.	.
.	.	.	.
.	.	.	.
.	.	.	.
.	.	.	.
.	.	.	.
.	.	.	.
.	.	.	.
.	.	.	.
.	.	.	.
.	.	.	.
.	.	.	.
