28	50	5
10000	2000	20000	.	0	0	0	0	0
5	1	24	.	1	1	1	1	1
5	1	20	.	1	1	1	1	1
2	0.2	5	.	1	1	1	1	1
0	0.1	10	.	0	1	0	0	1
0	0.1	10	.	0	0	1	0	1
0	0.1	2.5	.	0	0	0	1	1
0	1	60	.	0	0	0	0	0
0	0.01	1	.	0	0	0	0	0
0.0267	0.01	0.98	.	1	1	1	1	1
1.5	1.1	6	.	0	0	0	0	0
210.672	0.001	10	.	0	0	0	0	0
0.01	0.01	0.01	.	0	0	0	0	0
0	0.1	200	.	0	0	0	0	0
1	1	1	.	0	0	0	0	0
0.75	0.5	1	.	0	0	0	0	0
0	0	0	.	0	0	0	0	0
0.75	0.5	1	.	0	0	0	0	0
200	200	200	.	0	0	0	0	0
0.1	0.01	24	.	0	0	0	0	0
4	0	3	.	0	0	0	0	0
0.00185	0.0001	0.25	.	0	0	0	0	0
1	0.05	20	.	0	0	0	0	0
1	0.05	20	.	0	0	0	0	0
1	0.05	20	.	0	0	0	0	0
20	0.05	20	.	0	0	0	0	0
1	0.05	20	.	0	0	0	0	0
1	0.05	20	.	0	0	0	0	0
.	.	.	.	0	0	0	0	0
.	.	.	.	0	0	0	0	0
.	.	.	.	0	0	0	0	0
.	.	.	.	0	0	0	0	0
.	.	.	.	0	0	0	0	0
.	.	.	.	0	0	0	0	0
.	.	.	.	0	0	0	0	0
.	.	.	.	0	0	0	0	0
.	.	.	.	0	0	0	0	0
.	.	.	.	0	0	0	0	0
.	.	.	.	0	0	0	0	0
.	.	.	.	0	0	0	0	0
.	.	.	.	0	0	0	0	0
.	.	.	.	0	0	0	0	0
.	.	.	.	0	0	0	0	0
.	.	.	.	0	0	0	0	0
.	.	.	.	0	0	0	0	0
.	.	.	.	0	0	0	0	0
.	.	.	.	0	0	0	0	0
.	.	.	.	0	0	0	0	0
.	.	.	.	0	0	0	0	0
.	.	.	.	0	0	0	0	0
.	.	.	.	0	0	0	0	0
.	.	.	.	0	0	0	0	0
.	.	.	.	0	0	0	0	0
.	.	.	.	0	0	0	0	0
.	.	.	.	0	0	0	0	0
.	.	.	.	0	0	0	0	0
.	.	.	.	0	0	0	0	0
.	.	.	.	0	0	0	0	0
.	.	.	.	0	0	0	0	0
.	.	.	.	0	0	0	0	0
.	.	.	.	0	0	0	0	0
.	.	.	.	0	0	0	0	0
.	.	.	.	0	0	0	0	0
.	.	.	.	0	0	0	0	0
.	.	.	.	0	0	0	0	0
.	.	.	.	0	0	0	0	0
.	.	.	.	0	0	0	0	0
.	.	.	.	0	0	0	0	0
.	.	.	.	0	0	0	0	0
.	.	.	.	0	0	0	0	0
.	.	.	.	0	0	0	0	0
.	.	.	.	0	0	0	0	0
.	.	.	.	0	0	0	0	0
.	.	.	.	0	0	0	0	0
.	.	.	.	0	0	0	0	0
.	.	.	.	0	0	0	0	0
.	.	.	.	0	0	0	0	0
.	.	.	.	0	0	0	0	0
