4	9
time	prcEDUposBRDUneg	prcEDUposBRDUpos	prcEDUnegBRDUpos	prcEDUnegBRDUneg	percentG0G1	percentS	percentG2M	PostInG1	MiddleInG1
2	0.53	0.80	0.32	0.72	1.76	1.39	0.03	nan	nan
3	0.26	1.27	0.21	1.25	1.76	1.39	0.03	nan	nan
5	0.19	2.36	0.31	2.81	1.76	1.39	0.03	nan	nan
7	0.21	1.47	0.39	1.96	1.76	1.39	0.03	0.00	3.28
