4	9
time	prcEDUposBRDUneg	prcEDUposBRDUpos	prcEDUnegBRDUpos	prcEDUnegBRDUneg	percentG0G1	percentS	percentG2M	PostInG1	MiddleInG1
2	0.66	2.71	0.44	96.20	95.01	3.16	0.01	nan	nan
3	1.06	2.63	0.45	95.88	95.01	3.16	0.01	nan	nan
5	0.82	3.93	0.64	94.63	95.01	3.16	0.01	nan	nan
7	0.82	5.31	1.04	92.80	95.01	3.16	0.01	100.00	86.08
