4	7
time	prcEDUposBRDUneg	prcEDUposBRDUpos	prcEDUnegBRDUpos	prcEDUnegBRDUneg	percentG0G1	percentS	percentG2M
2	9.55	1.51	0.48	10.74	2.81	0.88	0.26
3	4.50	0.36	0.37	4.65	2.81	0.88	0.26
5	7.26	0.36	0.91	7.75	2.81	0.88	0.26
7	6.26	0.45	0.62	5.81	2.81	0.88	0.26
