4	7
time	prcEDUposBRDUneg	prcEDUposBRDUpos	prcEDUnegBRDUpos	prcEDUnegBRDUneg	percentG0G1	percentS	percentG2M
2	9.03	0.93	0.46	89.58	94.86	1.77	0.29
3	5.39	0.82	0.59	93.22	94.86	1.77	0.29
5	7.46	0.65	1.63	90.24	94.86	1.77	0.29
7	7.36	0.94	0.92	90.80	94.86	1.77	0.29
