4	11
time	prcEDUposBRDUneg	prcEDUposBRDUpos	prcEDUnegBRDUpos	prcEDUnegBRDUneg	PostInG1	MiddleInG1	UnstInS	PostInS	percentG0G1	percentS	percentG2M
2	3.71	41.57	4.07	50.67	84.60	0.40	0.00	6.05	64.63	27.71	6.36
3	6.14	30.96	5.01	57.90	98.80	10.77	1.55	0.71	64.63	27.71	6.36
5	4.25	26.48	3.59	65.65	97.75	35.10	8.72	1.52	64.63	27.71	6.36
7	4.60	26.38	5.80	63.22	98.23	71.90	16.97	23.77	64.63	27.71	6.36
