4	11
time	prcEDUposBRDUneg	prcEDUposBRDUpos	prcEDUnegBRDUpos	prcEDUnegBRDUneg	PostInG1	MiddleInG1	UnstInS	PostInS	percentG0G1	percentS	percentG2M
2	5.44	50.88	6.46	37.23	86.08	0.65	0.89	7.33	49.11	45.23	5.34
3	6.65	42.74	6.87	43.72	93.50	13.66	19.17	4.40	49.11	45.23	5.34
5	7.20	38.74	7.62	46.46	78.26	53.78	44.63	21.73	49.11	45.23	5.34
7	9.86	27.88	7.68	54.63	52.38	75.60	35.25	44.63	49.11	45.23	5.34
