4	11
time	prcEDUposBRDUneg	prcEDUposBRDUpos	prcEDUnegBRDUpos	prcEDUnegBRDUneg	PostInG1	MiddleInG1	UnstInS	PostInS	percentG0G1	percentS	percentG2M
2	5.25	44.97	6.51	43.27	92.13	1.57	0.74	2.29	40.82	50.15	8.34
3	7.60	43.06	7.59	41.74	95.42	13.32	32.27	3.97	40.82	50.15	8.34
5	8.88	38.63	8.53	43.98	64.70	48.28	53.75	33.23	40.82	50.15	8.34
7	11.32	42.20	8.11	38.44	28.90	73.64	54.73	65.70	40.82	50.15	8.34
