4	11
time	prcEDUposBRDUneg	prcEDUposBRDUpos	prcEDUnegBRDUpos	prcEDUnegBRDUneg	PostInG1	MiddleInG1	UnstInS	PostInS	percentG0G1	percentS	percentG2M
2	1.62	8.61	1.34	10.19	13.33	0.59	0.18	8.00	9.43	10.41	4.59
3	2.87	6.48	2.65	10.45	8.42	5.34	9.00	6.02	9.43	10.41	4.59
5	3.92	9.95	3.08	10.54	22.72	10.15	22.73	22.73	9.43	10.41	4.59
7	3.92	6.28	4.26	8.19	14.95	4.92	5.73	13.36	9.43	10.41	4.59
