4	8
time	prcEDUposBRDUpos	prcEDUnegBRDUpos	prcEDUposBRDUneg	prcEDUnegBRDUneg	percentG0G1	percentS	percentG2M	MiddleInG1
2	4.07	1.57	0.69	5.80	5.52	5.94	0.83	2.45
3	3.44	0.71	1.70	4.68	5.52	5.94	0.83	1.35
5	1.13	1.47	0.45	2.57	5.52	5.94	0.83	10.12
7	3.96	0.96	0.57	4.25	5.52	5.94	0.83	15.93
