4	8
time	prcEDUposBRDUpos	prcEDUnegBRDUpos	prcEDUposBRDUneg	prcEDUnegBRDUneg	percentG0G1	percentS	percentG2M	MiddleInG1
2	0.61	0.84	0.12	0.35	3.97	3.63	0.48	1.69
3	3.38	2.40	0.61	6.32	3.97	3.63	0.48	2.13
5	2.37	1.00	0.18	3.41	3.97	3.63	0.48	3.77
7	3.19	1.46	0.80	4.53	3.97	3.63	0.48	3.59
