4	8
time	prcEDUposBRDUpos	prcEDUnegBRDUpos	prcEDUposBRDUneg	prcEDUnegBRDUneg	percentG0G1	percentS	percentG2M	MiddleInG1
2	11.68	3.13	0.76	15.46	8.08	8.17	0.51	0.18
3	3.61	1.48	0.53	5.05	8.08	8.17	0.51	1.23
5	3.19	1.67	1.26	4.22	8.08	8.17	0.51	4.82
7	3.85	2.14	1.78	6.56	8.08	8.17	0.51	4.90
