171	33	20																					
2.5	1	10	.	0	0	0	0	0	0	0	0	0	0	0	0	0	0	0	0	0	0	0	0
0.005	0.0001	0.2	.	0	0	0	0	0	0	0	0	0	0	0	0	0	0	0	0	0	0	0	0
1600	1500	1700	.	0	0	0	0	0	0	0	0	0	0	1	0	0	0	0	0	0	0	0	1
8500	1.1	10000	.	0	0	0	0	0	0	0	0	0	0	0	0	0	1	0	0	0	0	0	0
2000	100	10000	.	0	1	0	0	0	0	0	0	0	0	0	0	0	0	0	0	0	0	0	1
1000	1.1	10000	.	0	0	0	0	0	0	0	0	0	0	0	0	0	0	0	0	0	0	1	0
7000	1.1	20000	.	1	0	0	0	0	0	0	0	0	0	0	0	0	0	0	0	0	0	0	1
500	1.1	2000	.	0	0	0	0	0	0	0	0	0	0	0	0	0	0	0	0	0	1	0	0
1.56e-6	0.000001	0.0001	.	0	0	0	0	1	0	0	0	0	0	0	0	0	0	0	0	0	0	0	0
7.13e-6	0.000001	0.0001	.	0	0	0	0	0	1	0	0	0	0	0	0	0	0	0	0	0	0	0	0
0.000005	0.000001	0.0001	.	0	0	0	0	0	0	0	0	0	0	0	0	0	0	0	0	0	0	0	0
3.55e-6	0.000001	0.0001	.	0	0	0	0	0	0	1	0	0	0	0	0	0	0	0	0	0	0	0	0
8.13e-6	0.0000001	0.0001	.	0	0	0	0	0	0	0	1	0	0	0	0	0	0	0	0	0	0	0	0
0.000002	0.0000001	0.0001	.	1	0	0	0	0	0	0	0	1	0	0	0	0	0	0	0	0	0	0	1
0.0000084	0.000001	0.0001	.	0	0	0	0	0	0	0	0	0	0	0	0	0	0	0	0	0	0	0	0
0.000025	0.00001	0.0001	.	0	0	0	0	0	0	0	0	0	1	0	0	0	0	0	0	0	0	0	0
0.00002	0.00001	0.0001	.	0	0	0	0	0	0	0	0	0	0	1	0	0	0	0	0	0	0	0	1
2.77e-5	0.00001	0.0001	.	0	0	0	0	0	0	0	0	0	0	0	1	0	0	0	0	0	0	0	0
0.00005	0.00001	0.0001	.	0	0	0	0	0	0	0	0	0	0	0	0	1	0	0	0	0	0	0	0
1.11e-5	0.000002	0.0005	.	0	0	0	0	0	0	0	0	0	0	0	0	0	1	0	0	0	0	0	0
0.00001	0.000002	0.0005	.	0	0	0	0	0	0	0	0	0	0	0	0	0	0	1	0	0	0	0	0
1.09e-5	0.000002	0.0005	.	0	0	0	0	0	0	0	0	0	0	0	0	0	0	0	1	0	0	0	0
0.00005	0.000002	0.0005	.	0	0	0	0	0	0	0	0	0	0	0	0	0	0	0	0	1	0	0	0
6.38e-5	0.000002	0.0005	.	0	0	0	0	0	0	0	0	0	0	0	0	0	0	0	0	0	1	0	0
0.000364	0.000002	0.0005	.	0	0	0	0	0	0	0	0	0	0	0	0	0	0	0	0	0	0	1	0
0.00036	0.000002	0.0005	.	1	0	0	0	0	0	0	0	0	0	0	0	0	0	0	0	0	0	0	1
0.00005	0.000002	0.0005	.	0	1	0	0	0	0	0	0	0	0	0	0	0	0	0	0	0	0	0	1
0.00003	0.000002	0.0005	.	0	0	1	0	0	0	0	0	0	0	0	0	0	0	0	0	0	0	0	0
0.00001	0.000002	0.0005	.	0	0	0	1	0	0	0	0	0	0	0	0	0	0	0	0	0	0	0	0
0.00028	0.000001	0.001	.	0	0	0	0	1	0	0	0	0	0	0	0	0	0	0	0	0	0	0	0
0.000002	0.000001	0.001	.	0	0	0	0	0	1	0	0	0	0	0	0	0	0	0	0	0	0	0	0
0.0004	0.000001	0.001	.	0	0	0	0	0	0	1	0	0	0	0	0	0	0	0	0	0	0	0	0
0.00001	0.000001	0.001	.	0	0	0	0	0	0	0	1	0	0	0	0	0	0	0	0	0	0	0	0
0.000006	0.000001	0.001	.	1	0	0	0	0	0	0	0	1	0	0	0	0	0	0	0	0	0	0	1
0.00000035	0.0000001	0.001	.	0	0	0	0	0	0	0	0	0	0	0	0	0	0	0	0	0	0	0	0
0.000028	0.000001	0.001	.	0	0	0	0	0	0	0	0	0	1	0	0	0	0	0	0	0	0	0	0
0.00002	0.000001	0.001	.	0	0	0	0	0	0	0	0	0	0	1	0	0	0	0	0	0	0	0	1
0.000055	0.000001	0.001	.	0	0	0	0	0	0	0	0	0	0	0	1	0	0	0	0	0	0	0	0
0.00007	0.000001	0.001	.	0	0	0	0	0	0	0	0	0	0	0	0	1	0	0	0	0	0	0	0
0.00025	0.00001	1	.	0	0	0	0	0	0	0	0	0	0	0	0	0	0	0	0	0	0	1	0
0.00002	0.00001	1	.	0	0	0	0	0	0	0	0	0	0	0	0	0	1	0	0	0	0	0	0
0.01	0.000001	0.9	.	0	0	0	0	0	0	0	0	0	0	0	0	0	1	0	0	0	0	0	0
8	0.01	50	.	0	0	0	0	0	0	0	0	0	0	0	0	0	1	0	0	0	0	0	0
2.5	0.25	5	.	0	0	0	0	0	0	0	0	0	0	0	0	0	1	0	0	0	0	0	0
0.02	0.000001	0.9	.	0	0	0	0	0	0	0	0	0	0	0	0	0	1	0	0	0	0	0	0
10	1	20	.	0	0	0	0	0	0	0	0	0	0	0	0	0	1	0	0	0	0	0	0
2	0.25	5	.	0	0	0	0	0	0	0	0	0	0	0	0	0	1	0	0	0	0	0	0
0.000001	0.000001	1	.	0	0	0	0	0	0	0	0	0	0	0	0	0	0	1	0	0	0	0	0
100	1.1	50	.	0	0	0	0	0	0	0	0	0	0	0	0	0	0	1	0	0	0	0	0
2.6	0.01	10	.	0	0	0	0	0	0	0	0	0	0	0	0	0	0	1	0	0	0	0	0
5	0.25	5	.	0	0	0	0	0	0	0	0	0	0	0	0	0	0	1	0	0	0	0	0
0.000001	0.000001	1	.	0	0	0	0	0	0	0	0	0	0	0	0	0	0	0	1	0	0	0	0
80	1.1	50	.	0	0	0	0	0	0	0	0	0	0	0	0	0	0	0	1	0	0	0	0
7.5	0.01	10	.	0	0	0	0	0	0	0	0	0	0	0	0	0	0	0	1	0	0	0	0
4	0.25	5	.	0	0	0	0	0	0	0	0	0	0	0	0	0	0	0	1	0	0	0	0
0.00001	0.00001	1	.	0	0	0	0	0	0	0	0	0	0	0	0	0	0	0	0	1	0	0	0
10	1.1	50	.	0	0	0	0	0	0	0	0	0	0	0	0	0	0	0	0	1	0	0	0
2.19	1.1	50	.	0	0	0	0	0	0	0	0	0	0	0	0	0	0	0	0	1	0	0	0
5	0.01	10	.	0	0	0	0	0	0	0	0	0	0	0	0	0	0	0	0	1	0	0	0
3	0.25	5	.	0	0	0	0	0	0	0	0	0	0	0	0	0	0	0	0	1	0	0	0
0.00001	0.00001	1	.	0	0	0	0	0	0	0	0	0	0	0	0	0	0	0	0	0	1	0	0
3.58	1.1	100	.	0	0	0	0	0	0	0	0	0	0	0	0	0	0	0	0	0	1	0	0
19.8	1.1	250	.	0	0	0	0	0	0	0	0	0	0	0	0	0	0	0	0	0	1	0	0
4	0.01	10	.	0	0	0	0	0	0	0	0	0	0	0	0	0	0	0	0	0	1	0	0
2	0.25	5	.	0	0	0	0	0	0	0	0	0	0	0	0	0	0	0	0	0	1	0	0
0.00001	0.000005	1	.	1	0	0	0	0	0	0	0	0	0	0	0	0	0	0	0	0	0	0	1
3	1.1	50	.	1	0	0	0	0	0	0	0	0	0	0	0	0	0	0	0	0	0	0	1
1	1.0	50	.	0	0	0	0	0	0	0	0	0	0	0	0	0	0	0	0	0	0	0	0
1	0.01	10	.	0	0	0	0	0	0	0	0	0	0	0	0	0	0	0	0	0	0	0	0
1	0.25	5	.	0	0	0	0	0	0	0	0	0	0	0	0	0	0	0	0	0	0	0	0
400	1.1	500	.	1	0	0	0	0	0	0	0	0	0	0	0	0	0	0	0	0	0	0	1
0.013	0.0001	100	.	1	0	0	0	0	0	0	0	0	0	0	0	0	0	0	0	0	0	0	1
1.3	0.25	5	.	1	0	0	0	0	0	0	0	0	0	0	0	0	0	0	0	0	0	0	1
0.0001	0.000001	0.9	.	1	0	0	0	0	0	0	0	0	0	0	0	0	0	0	0	0	0	0	1
1.5	0.01	10	.	1	0	0	0	0	0	0	0	0	0	0	0	0	0	0	0	0	0	0	1
3	0.25	5	.	1	0	0	0	0	0	0	0	0	0	0	0	0	0	0	0	0	0	0	1
1	0.000001	0.9	.	1	0	0	0	0	0	0	0	0	0	0	0	0	0	0	0	0	0	0	0
1	0.01	10	.	1	0	0	0	0	0	0	0	0	0	0	0	0	0	0	0	0	0	0	0
1	0.25	5	.	1	0	0	0	0	0	0	0	0	0	0	0	0	0	0	0	0	0	0	0
1	0.000001	0.9	.	0	0	0	0	0	0	0	0	0	0	0	0	0	0	0	0	0	0	0	0
1	0.01	10	.	0	0	0	0	0	0	0	0	0	0	0	0	0	0	0	0	0	0	0	0
1	0.25	5	.	0	0	0	0	0	0	0	0	0	0	0	0	0	0	0	0	0	0	0	0
0.0000005	0.0000001	1	.	0	1	0	0	0	0	0	0	0	0	0	0	0	0	0	0	0	0	0	1
0.1	0.001	1	.	0	1	0	0	0	0	0	0	0	0	0	0	0	0	0	0	0	0	0	1
20	1.01	50	.	0	1	0	0	0	0	0	0	0	0	0	0	0	0	0	0	0	0	0	1
15	0.01	100	.	0	1	0	0	0	0	0	0	0	0	0	0	0	0	0	0	0	0	0	1
1.5	0.25	5	.	0	1	0	0	0	0	0	0	0	0	0	0	0	0	0	0	0	0	0	1
20	1.1	50	.	0	1	0	0	0	0	0	0	0	0	0	0	0	0	0	0	0	0	0	1
5	0.01	20	.	0	1	0	0	0	0	0	0	0	0	0	0	0	0	0	0	0	0	0	1
1	0.25	5	.	0	1	0	0	0	0	0	0	0	0	0	0	0	0	0	0	0	0	0	1
0.1	0.000001	0.9	.	0	0	0	0	0	0	0	0	0	0	0	0	0	0	0	0	0	0	0	0
5	0.01	10	.	0	0	0	0	0	0	0	0	0	0	0	0	0	0	0	0	0	0	0	0
1	0.25	5	.	0	0	0	0	0	0	0	0	0	0	0	0	0	0	0	0	0	0	0	0
0.1	0.000001	0.9	.	0	1	0	0	0	0	0	0	0	0	0	0	0	0	0	0	0	0	0	1
5	0.01	10	.	0	1	0	0	0	0	0	0	0	0	0	0	0	0	0	0	0	0	0	1
1	0.25	5	.	0	1	0	0	0	0	0	0	0	0	0	0	0	0	0	0	0	0	0	1
15	1.01	50	.	0	1	0	0	0	0	0	0	0	0	0	0	0	0	0	0	0	0	0	1
1.1	0.01	10	.	0	1	0	0	0	0	0	0	0	0	0	0	0	0	0	0	0	0	0	1
4	0.25	5	.	0	1	0	0	0	0	0	0	0	0	0	0	0	0	0	0	0	0	0	1
0.1	0.000001	0.9	.	0	1	0	0	0	0	0	0	0	0	0	0	0	0	0	0	0	0	0	1
5	0.01	10	.	0	1	0	0	0	0	0	0	0	0	0	0	0	0	0	0	0	0	0	1
2	0.25	5	.	0	1	0	0	0	0	0	0	0	0	0	0	0	0	0	0	0	0	0	1
1	0.000001	0.9	.	0	0	0	0	0	0	0	0	0	0	0	0	0	0	0	0	0	0	0	0
1	0.01	10	.	0	0	0	0	0	0	0	0	0	0	0	0	0	0	0	0	0	0	0	0
1	0.25	5	.	0	0	0	0	0	0	0	0	0	0	0	0	0	0	0	0	0	0	0	0
0.000005	0.000001	1	.	0	0	1	0	0	0	0	0	0	0	0	0	0	0	0	0	0	0	0	0
16	1.1	50	.	0	0	1	0	0	0	0	0	0	0	0	0	0	0	0	0	0	0	0	0
1.8	1.1	50	.	0	0	1	0	0	0	0	0	0	0	0	0	0	0	0	0	0	0	0	0
0.8	0.01	5	.	0	0	1	0	0	0	0	0	0	0	0	0	0	0	0	0	0	0	0	0
2	0.25	5	.	0	0	1	0	0	0	0	0	0	0	0	0	0	0	0	0	0	0	0	0
15	1.1	50	.	0	0	1	0	0	0	0	0	0	0	0	0	0	0	0	0	0	0	0	0
0.169	0.01	1	.	0	0	1	0	0	0	0	0	0	0	0	0	0	0	0	0	0	0	0	0
3	0.25	5	.	0	0	1	0	0	0	0	0	0	0	0	0	0	0	0	0	0	0	0	0
0.5	0.000001	0.9	.	0	0	1	0	0	0	0	0	0	0	0	0	0	0	0	0	0	0	0	0
5	0.01	10	.	0	0	1	0	0	0	0	0	0	0	0	0	0	0	0	0	0	0	0	0
2	0.25	5	.	0	0	1	0	0	0	0	0	0	0	0	0	0	0	0	0	0	0	0	0
0.2	0.000001	0.9	.	0	0	1	0	0	0	0	0	0	0	0	0	0	0	0	0	0	0	0	0
5	0.01	10	.	0	0	1	0	0	0	0	0	0	0	0	0	0	0	0	0	0	0	0	0
2	0.25	5	.	0	0	1	0	0	0	0	0	0	0	0	0	0	0	0	0	0	0	0	0
0.01	0.000001	0.9	.	0	0	1	0	0	0	0	0	0	0	0	0	0	0	0	0	0	0	0	0
1	0.01	10	.	0	0	1	0	0	0	0	0	0	0	0	0	0	0	0	0	0	0	0	0
2	0.25	5	.	0	0	1	0	0	0	0	0	0	0	0	0	0	0	0	0	0	0	0	0
0.00001	0.00001	1	.	0	0	0	1	0	0	0	0	0	0	0	0	0	0	0	0	0	0	0	0
4	1.1	50	.	0	0	0	1	0	0	0	0	0	0	0	0	0	0	0	0	0	0	0	0
45	0.01	100	.	0	0	0	1	0	0	0	0	0	0	0	0	0	0	0	0	0	0	0	0
1	0.25	5	.	0	0	0	1	0	0	0	0	0	0	0	0	0	0	0	0	0	0	0	0
25	1.1	50	.	0	0	0	1	0	0	0	0	0	0	0	0	0	0	0	0	0	0	0	0
0.1	0.01	1	.	0	0	0	1	0	0	0	0	0	0	0	0	0	0	0	0	0	0	0	0
3	0.25	5	.	0	0	0	1	0	0	0	0	0	0	0	0	0	0	0	0	0	0	0	0
0.000001	0.000001	0.9	.	0	0	0	1	0	0	0	0	0	0	0	0	0	0	0	0	0	0	0	0
0.01	0.01	10	.	0	0	0	1	0	0	0	0	0	0	0	0	0	0	0	0	0	0	0	0
0.25	0.25	5	.	0	0	0	1	0	0	0	0	0	0	0	0	0	0	0	0	0	0	0	0
0.000001	0.000001	0.9	.	0	0	0	1	0	0	0	0	0	0	0	0	0	0	0	0	0	0	0	0
2	0.01	10	.	0	0	0	1	0	0	0	0	0	0	0	0	0	0	0	0	0	0	0	0
3	0.25	5	.	0	0	0	1	0	0	0	0	0	0	0	0	0	0	0	0	0	0	0	0
0.000001	0.000001	0.9	.	0	0	0	1	0	0	0	0	0	0	0	0	0	0	0	0	0	0	0	0
1	0.01	10	.	0	0	0	1	0	0	0	0	0	0	0	0	0	0	0	0	0	0	0	0
3	0.25	5	.	0	0	0	1	0	0	0	0	0	0	0	0	0	0	0	0	0	0	0	0
0.00001	0.00001	0.25	.	0	0	0	0	0	0	0	0	0	0	0	0	0	0	0	0	0	0	0	0
0.00001	0.00001	0.25	.	0	0	0	0	0	0	0	0	0	0	0	0	0	0	0	0	0	0	0	0
0.00001	0.00001	0.25	.	0	0	0	0	0	0	0	0	0	0	0	0	0	0	0	0	0	0	0	0
0.00001	0.00001	0.25	.	0	0	0	0	0	0	0	0	0	0	0	0	0	0	0	0	0	0	0	0
0.00001	0.00001	0.25	.	0	0	0	0	0	0	0	0	0	0	0	0	0	0	0	0	0	0	0	0
0.00001	0.00001	0.25	.	0	0	0	0	0	0	0	0	0	0	0	0	0	0	0	0	0	0	0	0
0.00001	0.00001	0.25	.	0	0	0	0	0	0	0	0	0	0	0	0	0	0	0	0	0	0	0	0
0.00001	0.00001	0.25	.	0	0	0	0	0	0	0	0	0	0	0	0	0	0	0	0	0	0	0	0
0.416	0.416	0.25	.	0	0	0	0	0	0	0	0	0	0	0	0	0	0	0	0	0	0	0	0
0.000001	0.000001	0.25	.	0	0	0	0	0	0	0	0	0	0	0	0	0	0	0	0	0	0	0	0
0.04	0.04	0.25	.	0	0	0	0	0	0	0	0	0	0	0	0	0	0	0	0	0	0	0	0
0.0094	0.0094	0.25	.	0	0	0	0	0	0	0	0	0	0	0	0	0	0	0	0	0	0	0	0
0.0165	0.0165	0.25	.	0	0	0	0	0	0	0	0	0	0	0	0	0	0	0	0	0	0	0	0
0.00016	0.00016	0.25	.	0	0	0	0	0	0	0	0	0	0	0	0	0	0	0	0	0	0	0	0
0.034	0.034	0.25	.	0	0	0	0	0	0	0	0	0	0	0	0	0	0	0	0	0	0	0	0
0.041	0.041	0.25	.	0	0	0	0	0	0	0	0	0	0	0	0	0	0	0	0	0	0	0	0
0.97	0.97	0.25	.	0	0	0	0	0	0	0	0	0	0	0	0	0	0	0	0	0	0	0	0
0.015	0.015	0.25	.	0	0	0	0	0	0	0	0	0	0	0	0	0	0	0	0	0	0	0	0
1.36	1.36	0.25	.	0	0	0	0	0	0	0	0	0	0	0	0	0	0	0	0	0	0	0	0
0.032	0.032	0.25	.	0	0	0	0	0	0	0	0	0	0	0	0	0	0	0	0	0	0	0	0
0.213	0.213	0.25	.	0	0	0	0	0	0	0	0	0	0	0	0	0	0	0	0	0	0	0	0
14.6	12	16	.	0	0	0	0	0	0	0	0	0	0	0	0	0	0	0	0	0	0	0	0
19.05	18	20	.	0	0	0	0	0	0	0	0	0	0	0	0	0	0	0	0	0	0	0	0
0.0006	0.0008	0.001	.	0	0	0	0	0	0	0	0	0	0	0	0	0	0	0	0	0	0	0	0
0.00053	0.0008	0.001	.	0	0	0	0	0	0	0	0	0	0	0	0	0	0	0	0	0	0	0	0
0.00014	0.0008	0.001	.	0	0	0	0	0	0	0	0	0	0	0	0	0	0	0	0	0	0	0	0
0.00042	0.0008	0.001	.	0	0	0	0	0	0	0	0	0	0	0	0	0	0	0	0	0	0	0	0
0.00011	0.0008	0.001	.	0	0	0	0	0	0	0	0	0	0	0	0	0	0	0	0	0	0	0	0
0.00014	0.0008	0.001	.	0	0	0	0	0	0	0	0	0	0	0	0	0	0	0	0	0	0	0	0
0.000112	0.0008	0.001	.	0	0	0	0	0	0	0	0	0	0	0	0	0	0	0	0	0	0	0	0
0.000001	0.0008	0.001	.	0	0	0	0	0	0	0	0	0	0	0	0	0	0	0	0	0	0	0	0
0.000001	0.0008	0.001	.	0	0	0	0	0	0	0	0	0	0	0	0	0	0	0	0	0	0	0	0
0.000001	0.0008	0.001	.	0	0	0	0	0	0	0	0	0	0	0	0	0	0	0	0	0	0	0	0
.	.	.	.	1	1	1	1	0	1	1	1	1	1	1	1	1	1	1	1	1	1	1	1
.	.	.	.	1	1	1	1	1	0	1	1	1	1	1	1	1	1	1	1	1	1	1	1
.	.	.	.	.	.	.	.	.	.	.	.	.	.	.	.	.	.	.	.	.	.	.	.
.	.	.	.	.	.	.	.	.	.	.	.	.	.	.	.	.	.	.	.	.	.	.	.
.	.	.	.	1	1	1	1	1	1	0	1	1	1	1	1	1	1	1	1	1	1	1	1
.	.	.	.	1	1	1	1	1	1	1	0	1	1	1	1	1	1	1	1	1	1	1	1
.	.	.	.	0	1	1	1	1	1	1	1	0	1	1	1	1	1	1	1	1	1	1	0
.	.	.	.	.	.	.	.	.	.	.	.	.	.	.	.	.	.	.	.	.	.	.	.
.	.	.	.	1	1	1	1	1	1	1	1	1	0	1	1	1	1	1	1	1	1	1	1
.	.	.	.	1	1	1	1	1	1	1	1	1	1	0	1	1	1	1	1	1	1	1	0
.	.	.	.	1	1	1	1	1	1	1	1	1	1	1	0	1	1	1	1	1	1	1	1
.	.	.	.	1	1	1	1	1	1	1	1	1	1	1	1	0	1	1	1	1	1	1	1
.	.	.	.	1	1	1	1	1	1	1	1	1	1	1	1	1	0	1	1	1	1	1	1
.	.	.	.	1	1	1	1	1	1	1	1	1	1	1	1	1	1	0	1	1	1	1	1
.	.	.	.	1	1	1	1	1	1	1	1	1	1	1	1	1	1	1	0	1	1	1	1
.	.	.	.	1	1	1	1	1	1	1	1	1	1	1	1	1	1	1	1	0	1	1	1
.	.	.	.	1	1	1	1	1	1	1	1	1	1	1	1	1	1	1	1	1	0	1	1
.	.	.	.	1	1	1	1	1	1	1	1	1	1	1	1	1	1	1	1	1	1	0	1
.	.	.	.	0	1	1	1	1	1	1	1	1	1	1	1	1	1	1	1	1	1	1	0
.	.	.	.	1	0	1	1	1	1	1	1	1	1	1	1	1	1	1	1	1	1	1	0
.	.	.	.	1	1	0	1	1	1	1	1	1	1	1	1	1	1	1	1	1	1	1	1
.	.	.	.	1	1	1	0	1	1	1	1	1	1	1	1	1	1	1	1	1	1	1	1
.	.	.	.	.	.	.	.	.	.	.	.	.	.	.	.	.	.	.	.	.	.	.	.
.	.	.	.	.	.	.	.	.	.	.	.	.	.	.	.	.	.	.	.	.	.	.	.
.	.	.	.	.	.	.	.	.	.	.	.	.	.	.	.	.	.	.	.	.	.	.	.
.	.	.	.	.	.	.	.	.	.	.	.	.	.	.	.	.	.	.	.	.	.	.	.
.	.	.	.	.	.	.	.	.	.	.	.	.	.	.	.	.	.	.	.	.	.	.	.
.	.	.	.	.	.	.	.	.	.	.	.	.	.	.	.	.	.	.	.	.	.	.	.
.	.	.	.	.	.	.	.	.	.	.	.	.	.	.	.	.	.	.	.	.	.	.	.
.	.	.	.	.	.	.	.	.	.	.	.	.	.	.	.	.	.	.	.	.	.	.	.
.	.	.	.	.	.	.	.	.	.	.	.	.	.	.	.	.	.	.	.	.	.	.	.
.	.	.	.	.	.	.	.	.	.	.	.	.	.	.	.	.	.	.	.	.	.	.	.
.	.	.	.	.	.	.	.	.	.	.	.	.	.	.	.	.	.	.	.	.	.	.	.